%
M48
M72
T01C0.02362
T02C0.03150
T03C0.03346
T04C0.03543
T05C0.04700
T06C0.07480
T07C0.12598
T08C0.12800
%
T01
X119910Y147469
X155343Y226209
X163217Y234083
X171091Y241957
X80540Y277391
X72666Y245894
T02
X52857Y263080
X45231Y269080
X52857Y274080
X45231Y257080
T03
X94320Y227627
X94320Y217627
X94320Y207627
X94320Y197627
X94320Y187627
X94320Y177627
X94320Y167627
X94320Y157627
X94320Y147627
X94320Y137627
X94320Y127627
X94320Y117627
X94320Y107627
X94320Y97627
X94320Y87627
X94320Y77627
X94320Y67627
X94320Y57627
X94320Y47627
X192745Y47627
X192745Y57627
X192745Y67627
X192745Y77627
X192745Y87627
X192745Y97627
X192745Y107627
X192745Y117627
X192745Y127627
X192745Y137627
X192745Y147627
X192745Y157627
X192745Y167627
X192745Y177627
X192745Y187627
X192745Y197627
X192745Y207627
X192745Y217627
X192745Y227627
T04
X68296Y81229
X68296Y71229
X68296Y61229
X68296Y51229
X58296Y56229
X58296Y66229
X58296Y76229
X58296Y86229
T05
X32233Y125816
X32233Y145501
X32233Y165186
X32233Y184871
X32233Y204556
X32233Y224241
X150265Y175028
X150265Y155343
X150265Y135658
T06
X21288Y99241
X21288Y38217
T07
X21485Y21485
X190776Y21485
X190776Y289202
X21485Y289202
T08
X33296Y91229
X33296Y46229
M30
