%
M48
M72
T01C0.02362
T02C0.03543
T03C0.04700
T04C0.07480
T05C0.12598
T06C0.12800
%
T01
X96288Y49044
X147469Y60855
T02
X137410Y68296
X127410Y68296
X117410Y68296
X107410Y68296
X102410Y58296
X112410Y58296
X122410Y58296
X132410Y58296
T03
X125816Y103099
X145501Y103099
X165186Y103099
X184871Y103099
X106131Y103099
X86446Y103099
X66761Y103099
X47076Y103099
T04
X89398Y21288
X150422Y21288
T05
X21485Y21485
X21485Y115973
X210461Y115973
X210461Y21485
T06
X142410Y33296
X97410Y33296
M30
