<?xml version="1.0" encoding="utf-8"?>
<!DOCTYPE eagle SYSTEM "eagle.dtd">
<eagle version="7.6.0">
<drawing>
<settings>
<setting alwaysvectorfont="no"/>
<setting verticaltext="up"/>
</settings>
<grid distance="1" unitdist="mm" unit="mm" style="lines" multiple="1" display="yes" altdistance="0.5" altunitdist="mm" altunit="mm"/>
<layers>
<layer number="1" name="Top" color="4" fill="1" visible="yes" active="yes"/>
<layer number="2" name="Route2" color="1" fill="3" visible="no" active="no"/>
<layer number="3" name="Route3" color="4" fill="3" visible="no" active="no"/>
<layer number="4" name="Route4" color="1" fill="4" visible="no" active="no"/>
<layer number="5" name="Route5" color="4" fill="4" visible="no" active="no"/>
<layer number="6" name="Route6" color="1" fill="8" visible="no" active="no"/>
<layer number="7" name="Route7" color="4" fill="8" visible="no" active="no"/>
<layer number="8" name="Route8" color="1" fill="2" visible="no" active="no"/>
<layer number="9" name="Route9" color="4" fill="2" visible="no" active="no"/>
<layer number="10" name="Route10" color="1" fill="7" visible="no" active="no"/>
<layer number="11" name="Route11" color="4" fill="7" visible="no" active="no"/>
<layer number="12" name="Route12" color="1" fill="5" visible="no" active="no"/>
<layer number="13" name="Route13" color="4" fill="5" visible="no" active="no"/>
<layer number="14" name="Route14" color="1" fill="6" visible="no" active="no"/>
<layer number="15" name="Route15" color="4" fill="6" visible="no" active="no"/>
<layer number="16" name="Bottom" color="1" fill="1" visible="yes" active="yes"/>
<layer number="17" name="Pads" color="2" fill="1" visible="yes" active="yes"/>
<layer number="18" name="Vias" color="2" fill="1" visible="yes" active="yes"/>
<layer number="19" name="Unrouted" color="6" fill="1" visible="yes" active="yes"/>
<layer number="20" name="Dimension" color="15" fill="1" visible="yes" active="yes"/>
<layer number="21" name="tPlace" color="7" fill="1" visible="yes" active="yes"/>
<layer number="22" name="bPlace" color="7" fill="1" visible="yes" active="yes"/>
<layer number="23" name="tOrigins" color="15" fill="1" visible="yes" active="yes"/>
<layer number="24" name="bOrigins" color="15" fill="1" visible="yes" active="yes"/>
<layer number="25" name="tNames" color="7" fill="1" visible="yes" active="yes"/>
<layer number="26" name="bNames" color="7" fill="1" visible="yes" active="yes"/>
<layer number="27" name="tValues" color="7" fill="1" visible="yes" active="yes"/>
<layer number="28" name="bValues" color="7" fill="1" visible="yes" active="yes"/>
<layer number="29" name="tStop" color="7" fill="3" visible="no" active="yes"/>
<layer number="30" name="bStop" color="7" fill="6" visible="no" active="yes"/>
<layer number="31" name="tCream" color="7" fill="4" visible="no" active="yes"/>
<layer number="32" name="bCream" color="7" fill="5" visible="no" active="yes"/>
<layer number="33" name="tFinish" color="6" fill="3" visible="no" active="yes"/>
<layer number="34" name="bFinish" color="6" fill="6" visible="no" active="yes"/>
<layer number="35" name="tGlue" color="7" fill="4" visible="no" active="yes"/>
<layer number="36" name="bGlue" color="7" fill="5" visible="no" active="yes"/>
<layer number="37" name="tTest" color="7" fill="1" visible="no" active="yes"/>
<layer number="38" name="bTest" color="7" fill="1" visible="no" active="yes"/>
<layer number="39" name="tKeepout" color="4" fill="11" visible="yes" active="yes"/>
<layer number="40" name="bKeepout" color="1" fill="11" visible="yes" active="yes"/>
<layer number="41" name="tRestrict" color="4" fill="10" visible="yes" active="yes"/>
<layer number="42" name="bRestrict" color="1" fill="10" visible="yes" active="yes"/>
<layer number="43" name="vRestrict" color="2" fill="10" visible="yes" active="yes"/>
<layer number="44" name="Drills" color="7" fill="1" visible="no" active="yes"/>
<layer number="45" name="Holes" color="7" fill="1" visible="yes" active="yes"/>
<layer number="46" name="Milling" color="3" fill="1" visible="no" active="yes"/>
<layer number="47" name="Measures" color="7" fill="1" visible="no" active="yes"/>
<layer number="48" name="Document" color="7" fill="1" visible="yes" active="yes"/>
<layer number="49" name="Reference" color="7" fill="1" visible="yes" active="yes"/>
<layer number="50" name="dxf" color="7" fill="1" visible="no" active="no"/>
<layer number="51" name="tDocu" color="7" fill="1" visible="yes" active="yes"/>
<layer number="52" name="bDocu" color="7" fill="1" visible="yes" active="yes"/>
<layer number="53" name="tGND_GNDA" color="7" fill="9" visible="no" active="no"/>
<layer number="54" name="bGND_GNDA" color="1" fill="9" visible="no" active="no"/>
<layer number="56" name="wert" color="7" fill="1" visible="no" active="no"/>
<layer number="57" name="tCAD" color="7" fill="1" visible="no" active="no"/>
<layer number="59" name="tCarbon" color="7" fill="1" visible="no" active="no"/>
<layer number="60" name="bCarbon" color="7" fill="1" visible="no" active="no"/>
<layer number="88" name="SimResults" color="9" fill="1" visible="yes" active="yes"/>
<layer number="89" name="SimProbes" color="9" fill="1" visible="yes" active="yes"/>
<layer number="90" name="Modules" color="5" fill="1" visible="no" active="no"/>
<layer number="91" name="Nets" color="2" fill="1" visible="no" active="no"/>
<layer number="92" name="Busses" color="1" fill="1" visible="no" active="no"/>
<layer number="93" name="Pins" color="2" fill="1" visible="no" active="no"/>
<layer number="94" name="Symbols" color="4" fill="1" visible="no" active="no"/>
<layer number="95" name="Names" color="7" fill="1" visible="no" active="no"/>
<layer number="96" name="Values" color="7" fill="1" visible="no" active="no"/>
<layer number="97" name="Info" color="7" fill="1" visible="no" active="no"/>
<layer number="98" name="Guide" color="6" fill="1" visible="no" active="no"/>
<layer number="99" name="SpiceOrder" color="5" fill="1" visible="no" active="no"/>
<layer number="100" name="Muster" color="7" fill="1" visible="no" active="no"/>
<layer number="101" name="Patch_Top" color="12" fill="4" visible="yes" active="yes"/>
<layer number="102" name="Vscore" color="7" fill="1" visible="yes" active="yes"/>
<layer number="103" name="tMap" color="7" fill="1" visible="yes" active="yes"/>
<layer number="104" name="Name" color="16" fill="1" visible="yes" active="yes"/>
<layer number="105" name="tPlate" color="7" fill="1" visible="yes" active="yes"/>
<layer number="106" name="bPlate" color="7" fill="1" visible="yes" active="yes"/>
<layer number="107" name="Crop" color="7" fill="1" visible="yes" active="yes"/>
<layer number="108" name="tplace-old" color="10" fill="1" visible="yes" active="yes"/>
<layer number="109" name="ref-old" color="11" fill="1" visible="yes" active="yes"/>
<layer number="110" name="fp0" color="7" fill="1" visible="yes" active="yes"/>
<layer number="111" name="LPC17xx" color="7" fill="1" visible="yes" active="yes"/>
<layer number="112" name="tSilk" color="7" fill="1" visible="yes" active="yes"/>
<layer number="113" name="IDFDebug" color="7" fill="1" visible="yes" active="yes"/>
<layer number="116" name="Patch_BOT" color="9" fill="4" visible="yes" active="yes"/>
<layer number="118" name="Rect_Pads" color="7" fill="1" visible="no" active="no"/>
<layer number="121" name="_tsilk" color="7" fill="1" visible="yes" active="yes"/>
<layer number="122" name="_bsilk" color="7" fill="1" visible="yes" active="yes"/>
<layer number="123" name="tTestmark" color="7" fill="1" visible="yes" active="yes"/>
<layer number="124" name="bTestmark" color="7" fill="1" visible="yes" active="yes"/>
<layer number="125" name="_tNames" color="7" fill="1" visible="yes" active="yes"/>
<layer number="126" name="_bNames" color="7" fill="1" visible="yes" active="yes"/>
<layer number="127" name="_tValues" color="7" fill="1" visible="yes" active="yes"/>
<layer number="128" name="_bValues" color="7" fill="1" visible="yes" active="yes"/>
<layer number="129" name="Mask" color="7" fill="1" visible="yes" active="yes"/>
<layer number="131" name="tAdjust" color="7" fill="1" visible="yes" active="yes"/>
<layer number="132" name="bAdjust" color="7" fill="1" visible="yes" active="yes"/>
<layer number="144" name="Drill_legend" color="7" fill="1" visible="yes" active="yes"/>
<layer number="150" name="Notes" color="7" fill="1" visible="yes" active="yes"/>
<layer number="151" name="HeatSink" color="7" fill="1" visible="yes" active="yes"/>
<layer number="152" name="_bDocu" color="7" fill="1" visible="yes" active="yes"/>
<layer number="153" name="FabDoc1" color="7" fill="1" visible="yes" active="yes"/>
<layer number="154" name="FabDoc2" color="7" fill="1" visible="yes" active="yes"/>
<layer number="155" name="FabDoc3" color="7" fill="1" visible="yes" active="yes"/>
<layer number="199" name="Contour" color="7" fill="1" visible="yes" active="yes"/>
<layer number="200" name="200bmp" color="1" fill="10" visible="yes" active="yes"/>
<layer number="201" name="201bmp" color="2" fill="10" visible="yes" active="yes"/>
<layer number="202" name="202bmp" color="3" fill="10" visible="yes" active="yes"/>
<layer number="203" name="203bmp" color="4" fill="10" visible="yes" active="yes"/>
<layer number="204" name="204bmp" color="5" fill="10" visible="yes" active="yes"/>
<layer number="205" name="205bmp" color="6" fill="10" visible="yes" active="yes"/>
<layer number="206" name="206bmp" color="7" fill="10" visible="yes" active="yes"/>
<layer number="207" name="207bmp" color="8" fill="10" visible="yes" active="yes"/>
<layer number="208" name="208bmp" color="9" fill="10" visible="yes" active="yes"/>
<layer number="209" name="209bmp" color="7" fill="1" visible="yes" active="yes"/>
<layer number="210" name="210bmp" color="7" fill="1" visible="yes" active="yes"/>
<layer number="211" name="211bmp" color="7" fill="1" visible="yes" active="yes"/>
<layer number="212" name="212bmp" color="7" fill="1" visible="yes" active="yes"/>
<layer number="213" name="213bmp" color="7" fill="1" visible="yes" active="yes"/>
<layer number="214" name="214bmp" color="7" fill="1" visible="yes" active="yes"/>
<layer number="215" name="215bmp" color="7" fill="1" visible="yes" active="yes"/>
<layer number="216" name="216bmp" color="7" fill="1" visible="yes" active="yes"/>
<layer number="217" name="217bmp" color="18" fill="1" visible="no" active="no"/>
<layer number="218" name="218bmp" color="19" fill="1" visible="no" active="no"/>
<layer number="219" name="219bmp" color="20" fill="1" visible="no" active="no"/>
<layer number="220" name="220bmp" color="21" fill="1" visible="no" active="no"/>
<layer number="221" name="221bmp" color="22" fill="1" visible="no" active="no"/>
<layer number="222" name="222bmp" color="23" fill="1" visible="no" active="no"/>
<layer number="223" name="223bmp" color="24" fill="1" visible="no" active="no"/>
<layer number="224" name="224bmp" color="25" fill="1" visible="no" active="no"/>
<layer number="225" name="225bmp" color="7" fill="1" visible="yes" active="yes"/>
<layer number="226" name="226bmp" color="7" fill="1" visible="yes" active="yes"/>
<layer number="227" name="227bmp" color="7" fill="1" visible="yes" active="yes"/>
<layer number="228" name="228bmp" color="7" fill="1" visible="yes" active="yes"/>
<layer number="229" name="229bmp" color="7" fill="1" visible="yes" active="yes"/>
<layer number="230" name="230bmp" color="7" fill="1" visible="yes" active="yes"/>
<layer number="231" name="231bmp" color="7" fill="1" visible="yes" active="yes"/>
<layer number="232" name="Eagle3D_PG2" color="7" fill="1" visible="no" active="no"/>
<layer number="233" name="Eagle3D_PG3" color="7" fill="1" visible="no" active="no"/>
<layer number="248" name="Housing" color="7" fill="1" visible="yes" active="yes"/>
<layer number="249" name="Edge" color="7" fill="1" visible="yes" active="yes"/>
<layer number="250" name="Descript" color="3" fill="1" visible="no" active="no"/>
<layer number="251" name="SMDround" color="12" fill="11" visible="no" active="no"/>
<layer number="254" name="cooling" color="7" fill="1" visible="yes" active="yes"/>
<layer number="255" name="routoute" color="7" fill="1" visible="yes" active="yes"/>
</layers>
<board>
<plain>
<wire x1="0" y1="-4" x2="49" y2="-4" width="0" layer="20"/>
<wire x1="49" y1="-4" x2="49" y2="70" width="0" layer="20"/>
<wire x1="49" y1="70" x2="0" y2="70" width="0" layer="20"/>
<wire x1="0" y1="70" x2="0" y2="-4" width="0" layer="20"/>
<hole x="3" y="67" drill="3.2"/>
<hole x="46" y="67" drill="3.2"/>
<hole x="3" y="-1" drill="3.2"/>
<hole x="46" y="-1" drill="3.2"/>
</plain>
<libraries>
<library name="UNLibrary">
<packages>
<package name="ESP32_AZ">
<pad name="5V" x="1.5" y="4.64" drill="0.85" shape="square"/>
<pad name="GND-V5" x="1.5" y="7.18" drill="0.85" shape="square"/>
<pad name="SD3" x="1.5" y="9.72" drill="0.85" shape="square"/>
<pad name="SD2" x="1.5" y="12.26" drill="0.85" shape="square"/>
<pad name="G13" x="1.5" y="14.8" drill="0.85" shape="square"/>
<pad name="GND1" x="1.5" y="17.34" drill="0.85" shape="square"/>
<pad name="G12" x="1.5" y="19.88" drill="0.85" shape="square"/>
<pad name="G14" x="1.5" y="22.42" drill="0.85" shape="square"/>
<pad name="G27" x="1.5" y="24.96" drill="0.85" shape="square"/>
<pad name="G26" x="1.5" y="27.5" drill="0.85" shape="square"/>
<pad name="G25" x="1.5" y="30.04" drill="0.85" shape="square"/>
<pad name="G33" x="1.5" y="32.58" drill="0.85" shape="square"/>
<pad name="G32" x="1.5" y="35.12" drill="0.85" shape="square"/>
<pad name="G35" x="1.5" y="37.66" drill="0.85" shape="square"/>
<pad name="G34" x="1.5" y="40.2" drill="0.85" shape="square"/>
<pad name="SN" x="1.5" y="42.74" drill="0.85" shape="square"/>
<pad name="SP" x="1.5" y="45.28" drill="0.85" shape="square"/>
<pad name="EN" x="1.5" y="47.82" drill="0.85" shape="square"/>
<pad name="3.3V" x="1.5" y="50.36" drill="0.85" shape="square"/>
<pad name="CLK" x="26.5" y="4.64" drill="0.85" shape="square"/>
<pad name="SD0" x="26.5" y="7.18" drill="0.85" shape="square"/>
<pad name="SD1" x="26.5" y="9.72" drill="0.85" shape="square"/>
<pad name="G15" x="26.5" y="12.26" drill="0.85" shape="square"/>
<pad name="G2" x="26.5" y="14.8" drill="0.85" shape="square"/>
<pad name="G0" x="26.5" y="17.34" drill="0.85" shape="square"/>
<pad name="G4" x="26.5" y="19.88" drill="0.85" shape="square"/>
<pad name="G16" x="26.5" y="22.42" drill="0.85" shape="square"/>
<pad name="G17" x="26.5" y="24.96" drill="0.85" shape="square"/>
<pad name="G5" x="26.5" y="27.5" drill="0.85" shape="square"/>
<pad name="G18" x="26.5" y="30.04" drill="0.85" shape="square"/>
<pad name="G19" x="26.5" y="32.58" drill="0.85" shape="square"/>
<pad name="GND3" x="26.5" y="35.12" drill="0.85" shape="square"/>
<pad name="G21" x="26.5" y="37.66" drill="0.85" shape="square"/>
<pad name="RXD" x="26.5" y="40.2" drill="0.85" shape="square"/>
<pad name="TXD" x="26.5" y="42.74" drill="0.85" shape="square"/>
<pad name="G22" x="26.5" y="45.28" drill="0.85" shape="square"/>
<pad name="G23" x="26.5" y="47.82" drill="0.85" shape="square"/>
<pad name="GND2" x="26.5" y="50.36" drill="0.85" shape="square"/>
<wire x1="0" y1="0" x2="0" y2="55" width="0.127" layer="21"/>
<wire x1="0" y1="55" x2="28" y2="55" width="0.127" layer="21"/>
<wire x1="28" y1="55" x2="28" y2="0" width="0.127" layer="21"/>
<wire x1="28" y1="0" x2="0" y2="0" width="0.127" layer="21"/>
<polygon width="0.127" layer="21">
<vertex x="10.25" y="0"/>
<vertex x="10.25" y="2.54"/>
<vertex x="17.75" y="2.54"/>
<vertex x="17.75" y="0"/>
</polygon>
<text x="14" y="3" size="1.27" layer="21" align="bottom-center">USB</text>
<text x="3" y="49.86" size="1.27" layer="21">3V3</text>
<text x="3" y="47.32" size="1.27" layer="21">EN</text>
<text x="3" y="44.78" size="1.27" layer="21">SP</text>
<text x="3" y="42.24" size="1.27" layer="21">SN</text>
<text x="3" y="39.7" size="1.27" layer="21">G34</text>
<text x="3" y="37.16" size="1.27" layer="21">G35</text>
<text x="3" y="34.62" size="1.27" layer="21">G32</text>
<text x="3" y="32.08" size="1.27" layer="21">G33</text>
<text x="3" y="29.54" size="1.27" layer="21">G25</text>
<text x="3" y="27" size="1.27" layer="21">G26</text>
<text x="3" y="24.46" size="1.27" layer="21">G27</text>
<text x="3" y="21.92" size="1.27" layer="21">G14</text>
<text x="3" y="19.38" size="1.27" layer="21">G12</text>
<text x="3" y="16.84" size="1.27" layer="21">GND</text>
<text x="3.04" y="14.3" size="1.27" layer="21">G13</text>
<text x="3" y="11.76" size="1.27" layer="21">SD2</text>
<text x="3" y="9.22" size="1.27" layer="21">SD3</text>
<text x="3" y="6.68" size="1.27" layer="21">CMD</text>
<text x="3" y="4.14" size="1.27" layer="21">V5</text>
<text x="25" y="5.14" size="1.27" layer="21" rot="R180">CLK</text>
<text x="25" y="7.68" size="1.27" layer="21" rot="R180">SD0</text>
<text x="25" y="10.22" size="1.27" layer="21" rot="R180">SD1</text>
<text x="25" y="12.76" size="1.27" layer="21" rot="R180">G15</text>
<text x="25" y="15.3" size="1.27" layer="21" rot="R180">G2</text>
<text x="25" y="17.84" size="1.27" layer="21" rot="R180">G0</text>
<text x="25" y="20.38" size="1.27" layer="21" rot="R180">G4</text>
<text x="25" y="22.92" size="1.27" layer="21" rot="R180">G16</text>
<text x="25" y="25.46" size="1.27" layer="21" rot="R180">G17</text>
<text x="25" y="28" size="1.27" layer="21" rot="R180">G5</text>
<text x="25" y="30.54" size="1.27" layer="21" rot="R180">G18</text>
<text x="25" y="33.08" size="1.27" layer="21" rot="R180">G19</text>
<text x="25" y="35.62" size="1.27" layer="21" rot="R180">GND</text>
<text x="25" y="38.16" size="1.27" layer="21" rot="R180">G21</text>
<text x="25" y="40.7" size="1.27" layer="21" rot="R180">RXD</text>
<text x="25" y="43.24" size="1.27" layer="21" rot="R180">TXD</text>
<text x="25" y="45.78" size="1.27" layer="21" rot="R180">G22</text>
<text x="25" y="48.32" size="1.27" layer="21" rot="R180">G23</text>
<text x="25" y="50.86" size="1.27" layer="21" rot="R180">GND</text>
</package>
<package name="RJ45-SHIELD1">
<description>&lt;b&gt;RJ45 Low Profile&lt;/b&gt; Shield Type 1&lt;p&gt;
For all RJ45 N and Z Series Models&lt;br&gt;
Source: www.tycoelectronics.com .. ENG_DS_1654001_1099_RJ_L_0507.pdf</description>
<wire x1="7.777" y1="-0.611" x2="7.777" y2="-5.242" width="0.2032" layer="51"/>
<wire x1="-7.777" y1="-5.242" x2="-7.777" y2="-0.611" width="0.2032" layer="51"/>
<wire x1="-7.777" y1="10.819" x2="7.777" y2="10.819" width="0.2032" layer="21"/>
<wire x1="8.4455" y1="-5.5118" x2="-8.4455" y2="-5.5118" width="0.01" layer="20"/>
<wire x1="7.777" y1="-7.782" x2="-7.777" y2="-7.782" width="0.2032" layer="21"/>
<wire x1="-7.777" y1="-7.782" x2="-7.777" y2="-5.056" width="0.2032" layer="21"/>
<wire x1="7.777" y1="-5.056" x2="7.777" y2="-7.782" width="0.2032" layer="21"/>
<wire x1="-7.777" y1="6.823" x2="-7.777" y2="10.819" width="0.2032" layer="51"/>
<wire x1="7.777" y1="10.819" x2="7.777" y2="6.823" width="0.2032" layer="51"/>
<wire x1="-7.777" y1="-0.797" x2="-7.777" y2="7.009" width="0.2032" layer="21"/>
<wire x1="7.777" y1="7.009" x2="7.777" y2="-0.797" width="0.2032" layer="21"/>
<pad name="4" x="-0.635" y="8.89" drill="0.9" diameter="1.4"/>
<pad name="3" x="-1.905" y="6.35" drill="0.9" diameter="1.4"/>
<pad name="2" x="-3.175" y="8.89" drill="0.9" diameter="1.4"/>
<pad name="5" x="0.635" y="6.35" drill="0.9" diameter="1.4"/>
<pad name="1" x="-4.445" y="6.35" drill="0.9" diameter="1.4"/>
<pad name="6" x="1.905" y="8.89" drill="0.9" diameter="1.4"/>
<pad name="S1" x="-7.75" y="-3.05" drill="1.9" diameter="2.5"/>
<pad name="S2" x="7.75" y="-3.05" drill="1.9" diameter="2.5"/>
<pad name="7" x="3.175" y="6.35" drill="0.9" diameter="1.4"/>
<pad name="8" x="4.445" y="8.89" drill="0.9" diameter="1.4"/>
<text x="-9.525" y="-0.635" size="1.778" layer="25" rot="R90">&gt;NAME</text>
<text x="-5.715" y="2.54" size="1.778" layer="27">&gt;VALUE</text>
<rectangle x1="7.85" y1="-5.485" x2="8.775" y2="-4.342" layer="51"/>
<rectangle x1="-8.775" y1="-5.485" x2="-7.85" y2="-4.342" layer="51"/>
<hole x="-5.715" y="0" drill="3.2512"/>
<hole x="5.715" y="0" drill="3.2512"/>
</package>
<package name="LED5MMRGB">
<wire x1="-2.54" y1="1.905" x2="-2.54" y2="-1.905" width="0.127" layer="21"/>
<wire x1="-2.54" y1="1.905" x2="-2.54" y2="-1.905" width="0.127" layer="21" curve="-286.260205"/>
<wire x1="-1.524" y1="0" x2="0.254" y2="0" width="0.127" layer="25"/>
<wire x1="0.254" y1="0" x2="0.254" y2="-1.905" width="0.127" layer="25"/>
<wire x1="0.254" y1="-1.905" x2="-1.524" y2="-1.905" width="0.127" layer="25"/>
<wire x1="-1.524" y1="-1.905" x2="-1.524" y2="0" width="0.127" layer="25"/>
<circle x="0" y="0" radius="2.5" width="0.127" layer="21"/>
<pad name="1" x="-2.159" y="0.9684" drill="0.8" diameter="1.6764" rot="R90"/>
<pad name="2" x="-0.635" y="-0.9684" drill="0.8" diameter="1.6764" shape="octagon" rot="R90"/>
<pad name="3" x="0.889" y="0.9684" drill="0.8" diameter="1.6764" rot="R90"/>
<pad name="4" x="2.159" y="-0.9684" drill="0.8" diameter="1.6764" rot="R90"/>
<text x="-3.175" y="3.175" size="1.27" layer="21">&gt;NAME</text>
</package>
</packages>
</library>
<library name="con-wago-500">
<description>&lt;b&gt;Wago Screw Clamps&lt;/b&gt;&lt;p&gt;
Grid 5.00 mm&lt;p&gt;
&lt;author&gt;Created by librarian@cadsoft.de&lt;/author&gt;</description>
<packages>
<package name="W237-102">
<description>&lt;b&gt;WAGO SCREW CLAMP&lt;/b&gt;</description>
<wire x1="-3.491" y1="-2.286" x2="-1.484" y2="-0.279" width="0.254" layer="51"/>
<wire x1="1.488" y1="-2.261" x2="3.469" y2="-0.254" width="0.254" layer="51"/>
<wire x1="-4.989" y1="-5.461" x2="4.993" y2="-5.461" width="0.1524" layer="21"/>
<wire x1="4.993" y1="3.734" x2="4.993" y2="3.531" width="0.1524" layer="21"/>
<wire x1="4.993" y1="3.734" x2="-4.989" y2="3.734" width="0.1524" layer="21"/>
<wire x1="-4.989" y1="-5.461" x2="-4.989" y2="-3.073" width="0.1524" layer="21"/>
<wire x1="-4.989" y1="-3.073" x2="-3.389" y2="-3.073" width="0.1524" layer="21"/>
<wire x1="-3.389" y1="-3.073" x2="-1.611" y2="-3.073" width="0.1524" layer="51"/>
<wire x1="-1.611" y1="-3.073" x2="1.615" y2="-3.073" width="0.1524" layer="21"/>
<wire x1="3.393" y1="-3.073" x2="4.993" y2="-3.073" width="0.1524" layer="21"/>
<wire x1="-4.989" y1="-3.073" x2="-4.989" y2="3.531" width="0.1524" layer="21"/>
<wire x1="4.993" y1="-3.073" x2="4.993" y2="-5.461" width="0.1524" layer="21"/>
<wire x1="-4.989" y1="3.531" x2="4.993" y2="3.531" width="0.1524" layer="21"/>
<wire x1="-4.989" y1="3.531" x2="-4.989" y2="3.734" width="0.1524" layer="21"/>
<wire x1="4.993" y1="3.531" x2="4.993" y2="-3.073" width="0.1524" layer="21"/>
<wire x1="1.615" y1="-3.073" x2="3.393" y2="-3.073" width="0.1524" layer="51"/>
<circle x="-2.5" y="-1.27" radius="1.4986" width="0.1524" layer="51"/>
<circle x="-2.5" y="2.2098" radius="0.508" width="0.1524" layer="21"/>
<circle x="2.5038" y="-1.27" radius="1.4986" width="0.1524" layer="51"/>
<circle x="2.5038" y="2.2098" radius="0.508" width="0.1524" layer="21"/>
<pad name="1" x="-2.5" y="-1.27" drill="1.1938" shape="long" rot="R90"/>
<pad name="2" x="2.5" y="-1.27" drill="1.1938" shape="long" rot="R90"/>
<text x="-5.04" y="-7.62" size="1.27" layer="27" ratio="10">&gt;VALUE</text>
<text x="-3.8462" y="-5.0038" size="1.27" layer="25" ratio="10">&gt;NAME</text>
<text x="-4.532" y="0.635" size="1.27" layer="21" ratio="10">1</text>
<text x="0.421" y="0.635" size="1.27" layer="21" ratio="10">2</text>
</package>
<package name="W237-103">
<description>&lt;b&gt;WAGO SCREW CLAMP&lt;/b&gt;</description>
<wire x1="4.093" y1="-2.255" x2="5.897" y2="-0.299" width="0.254" layer="51"/>
<wire x1="-0.911" y1="-2.331" x2="0.994" y2="-0.299" width="0.254" layer="51"/>
<wire x1="-5.991" y1="-2.306" x2="-3.984" y2="-0.299" width="0.254" layer="51"/>
<wire x1="-7.489" y1="-5.481" x2="7.497" y2="-5.481" width="0.1524" layer="21"/>
<wire x1="7.497" y1="3.714" x2="7.497" y2="3.511" width="0.1524" layer="21"/>
<wire x1="7.497" y1="3.714" x2="-7.489" y2="3.714" width="0.1524" layer="21"/>
<wire x1="-7.489" y1="-5.481" x2="-7.489" y2="-3.093" width="0.1524" layer="21"/>
<wire x1="-7.489" y1="-3.093" x2="-5.889" y2="-3.093" width="0.1524" layer="21"/>
<wire x1="-5.889" y1="-3.093" x2="-4.111" y2="-3.093" width="0.1524" layer="51"/>
<wire x1="-4.111" y1="-3.093" x2="-0.885" y2="-3.093" width="0.1524" layer="21"/>
<wire x1="0.893" y1="-3.093" x2="4.119" y2="-3.093" width="0.1524" layer="21"/>
<wire x1="5.897" y1="-3.093" x2="7.497" y2="-3.093" width="0.1524" layer="21"/>
<wire x1="-7.489" y1="-3.093" x2="-7.489" y2="3.511" width="0.1524" layer="21"/>
<wire x1="7.497" y1="-3.093" x2="7.497" y2="-5.481" width="0.1524" layer="21"/>
<wire x1="7.497" y1="3.511" x2="-7.489" y2="3.511" width="0.1524" layer="21"/>
<wire x1="7.497" y1="3.511" x2="7.497" y2="-3.093" width="0.1524" layer="21"/>
<wire x1="-7.489" y1="3.511" x2="-7.489" y2="3.714" width="0.1524" layer="21"/>
<wire x1="-0.885" y1="-3.093" x2="0.893" y2="-3.093" width="0.1524" layer="51"/>
<wire x1="4.119" y1="-3.093" x2="5.897" y2="-3.093" width="0.1524" layer="51"/>
<circle x="-5" y="-1.29" radius="1.4986" width="0.1524" layer="51"/>
<circle x="5.0076" y="-1.29" radius="1.4986" width="0.1524" layer="51"/>
<circle x="-5" y="2.1898" radius="0.508" width="0.1524" layer="21"/>
<circle x="5.0076" y="2.1898" radius="0.508" width="0.1524" layer="21"/>
<circle x="0.0038" y="-1.29" radius="1.4986" width="0.1524" layer="51"/>
<circle x="0.0038" y="2.1898" radius="0.508" width="0.1524" layer="21"/>
<pad name="1" x="-5" y="-1.29" drill="1.1938" shape="long" rot="R90"/>
<pad name="2" x="0" y="-1.29" drill="1.1938" shape="long" rot="R90"/>
<pad name="3" x="5" y="-1.29" drill="1.1938" shape="long" rot="R90"/>
<text x="-6.905" y="0.615" size="1.27" layer="51" ratio="10">1</text>
<text x="-1.8504" y="0.5642" size="1.27" layer="51" ratio="10">2</text>
<text x="3.1534" y="0.615" size="1.27" layer="51" ratio="10">3</text>
<text x="-5.3048" y="-4.9476" size="1.27" layer="27" ratio="10">&gt;VALUE</text>
<text x="-5.6858" y="-7.4622" size="1.27" layer="25" ratio="10">&gt;NAME</text>
</package>
</packages>
</library>
<library name="resistor">
<description>&lt;b&gt;Resistors, Capacitors, Inductors&lt;/b&gt;&lt;p&gt;
Based on the previous libraries:
&lt;ul&gt;
&lt;li&gt;r.lbr
&lt;li&gt;cap.lbr 
&lt;li&gt;cap-fe.lbr
&lt;li&gt;captant.lbr
&lt;li&gt;polcap.lbr
&lt;li&gt;ipc-smd.lbr
&lt;/ul&gt;
All SMD packages are defined according to the IPC specifications and  CECC&lt;p&gt;
&lt;author&gt;Created by librarian@cadsoft.de&lt;/author&gt;&lt;p&gt;
&lt;p&gt;
for Electrolyt Capacitors see also :&lt;p&gt;
www.bccomponents.com &lt;p&gt;
www.panasonic.com&lt;p&gt;
www.kemet.com&lt;p&gt;
&lt;p&gt;
for trimmer refence see : &lt;u&gt;www.electrospec-inc.com/cross_references/trimpotcrossref.asp&lt;/u&gt;&lt;p&gt;

&lt;map name="nav_main"&gt;
&lt;area shape="rect" coords="0,1,140,23" href="../military_specs.asp" title=""&gt;
&lt;area shape="rect" coords="0,24,140,51" href="../about.asp" title=""&gt;
&lt;area shape="rect" coords="1,52,140,77" href="../rfq.asp" title=""&gt;
&lt;area shape="rect" coords="0,78,139,103" href="../products.asp" title=""&gt;
&lt;area shape="rect" coords="1,102,138,128" href="../excess_inventory.asp" title=""&gt;
&lt;area shape="rect" coords="1,129,138,150" href="../edge.asp" title=""&gt;
&lt;area shape="rect" coords="1,151,139,178" href="../industry_links.asp" title=""&gt;
&lt;area shape="rect" coords="0,179,139,201" href="../comments.asp" title=""&gt;
&lt;area shape="rect" coords="1,203,138,231" href="../directory.asp" title=""&gt;
&lt;area shape="default" nohref&gt;
&lt;/map&gt;

&lt;html&gt;

&lt;title&gt;&lt;/title&gt;

 &lt;LINK REL="StyleSheet" TYPE="text/css" HREF="style-sheet.css"&gt;

&lt;body bgcolor="#ffffff" text="#000000" marginwidth="0" marginheight="0" topmargin="0" leftmargin="0"&gt;
&lt;table border=0 cellspacing=0 cellpadding=0 width="100%" cellpaddding=0 height="55%"&gt;
&lt;tr valign="top"&gt;

&lt;/td&gt;
&lt;! &lt;td width="10"&gt;&amp;nbsp;&lt;/td&gt;
&lt;td width="90%"&gt;

&lt;b&gt;&lt;font color="#0000FF" size="4"&gt;TRIM-POT CROSS REFERENCE&lt;/font&gt;&lt;/b&gt;
&lt;P&gt;
&lt;TABLE BORDER=0 CELLSPACING=1 CELLPADDING=2&gt;
  &lt;TR&gt;
    &lt;TD COLSPAN=8&gt;
      &lt;FONT SIZE=3 FACE=ARIAL&gt;&lt;B&gt;RECTANGULAR MULTI-TURN&lt;/B&gt;&lt;/FONT&gt;
    &lt;/TD&gt;
  &lt;/TR&gt;
  &lt;TR&gt;
    &lt;TD ALIGN=CENTER&gt;
      &lt;B&gt;
      &lt;FONT SIZE=3 FACE=ARIAL color="#FF0000"&gt;BOURNS&lt;/FONT&gt;
      &lt;/B&gt;
    &lt;/TD&gt;
    &lt;TD ALIGN=CENTER&gt;
      &lt;B&gt;
      &lt;FONT SIZE=3 FACE=ARIAL color="#FF0000"&gt;BI&amp;nbsp;TECH&lt;/FONT&gt;
      &lt;/B&gt;
    &lt;/TD&gt;
    &lt;TD ALIGN=CENTER&gt;
      &lt;B&gt;
      &lt;FONT SIZE=3 FACE=ARIAL color="#FF0000"&gt;DALE-VISHAY&lt;/FONT&gt;
      &lt;/B&gt;
    &lt;/TD&gt;
    &lt;TD ALIGN=CENTER&gt;
      &lt;B&gt;
      &lt;FONT SIZE=3 FACE=ARIAL color="#FF0000"&gt;PHILIPS/MEPCO&lt;/FONT&gt;
      &lt;/B&gt;
    &lt;/TD&gt;
    &lt;TD ALIGN=CENTER&gt;
      &lt;B&gt;
      &lt;FONT SIZE=3 FACE=ARIAL color="#FF0000"&gt;MURATA&lt;/FONT&gt;
      &lt;/B&gt;
    &lt;/TD&gt;
    &lt;TD ALIGN=CENTER&gt;
      &lt;B&gt;
      &lt;FONT SIZE=3 FACE=ARIAL color="#FF0000"&gt;PANASONIC&lt;/FONT&gt;
      &lt;/B&gt;
    &lt;/TD&gt;
    &lt;TD ALIGN=CENTER&gt;
      &lt;B&gt;
      &lt;FONT SIZE=3 FACE=ARIAL color="#FF0000"&gt;SPECTROL&lt;/FONT&gt;
      &lt;/B&gt;
    &lt;/TD&gt;
    &lt;TD ALIGN=CENTER&gt;
      &lt;B&gt;
      &lt;FONT SIZE=3 FACE=ARIAL color="#FF0000"&gt;MILSPEC&lt;/FONT&gt;
      &lt;/B&gt;
    &lt;/TD&gt;&lt;TD&gt;&amp;nbsp;&lt;/TD&gt;
  &lt;/TR&gt;
  &lt;TR&gt;
    &lt;TD BGCOLOR="#cccccc" ALIGN=CENTER&gt;&lt;FONT FACE=ARIAL SIZE=3 &gt;
      3005P&lt;BR&gt;
      3006P&lt;BR&gt;
      3006W&lt;BR&gt;
      3006Y&lt;BR&gt;
      3009P&lt;BR&gt;
      3009W&lt;BR&gt;
      3009Y&lt;BR&gt;
      3057J&lt;BR&gt;
      3057L&lt;BR&gt;
      3057P&lt;BR&gt;
      3057Y&lt;BR&gt;
      3059J&lt;BR&gt;
      3059L&lt;BR&gt;
      3059P&lt;BR&gt;
      3059Y&lt;BR&gt;&lt;/FONT&gt;
    &lt;/TD&gt;
    &lt;TD BGCOLOR="#cccccc" ALIGN=CENTER&gt;&lt;FONT FACE=ARIAL SIZE=3&gt;
      -&lt;BR&gt;
      89P&lt;BR&gt;
      89W&lt;BR&gt;
      89X&lt;BR&gt;
      89PH&lt;BR&gt;
      76P&lt;BR&gt;
      89XH&lt;BR&gt;
      78SLT&lt;BR&gt;
      78L&amp;nbsp;ALT&lt;BR&gt;
      56P&amp;nbsp;ALT&lt;BR&gt;
      78P&amp;nbsp;ALT&lt;BR&gt;
      T8S&lt;BR&gt;
      78L&lt;BR&gt;
      56P&lt;BR&gt;
      78P&lt;BR&gt;&lt;/FONT&gt;
    &lt;/TD&gt;
    &lt;TD BGCOLOR="#cccccc" ALIGN=CENTER&gt;&lt;FONT FACE=ARIAL SIZE=3&gt;
      -&lt;BR&gt;
      T18/784&lt;BR&gt;
      783&lt;BR&gt;
      781&lt;BR&gt;
      -&lt;BR&gt;
      -&lt;BR&gt;
      -&lt;BR&gt;
      2199&lt;BR&gt;
      1697/1897&lt;BR&gt;
      1680/1880&lt;BR&gt;
      2187&lt;BR&gt;
      -&lt;BR&gt;
      -&lt;BR&gt;
      -&lt;BR&gt;
      -&lt;BR&gt;&lt;/FONT&gt;
    &lt;/TD&gt;
    &lt;TD BGCOLOR="#cccccc" ALIGN=CENTER&gt;&lt;FONT FACE=ARIAL SIZE=3&gt;
      -&lt;BR&gt;
      8035EKP/CT20/RJ-20P&lt;BR&gt;
      -&lt;BR&gt;
      RJ-20X&lt;BR&gt;
      -&lt;BR&gt;
      -&lt;BR&gt;
      -&lt;BR&gt;
      1211L&lt;BR&gt;
      8012EKQ&amp;nbsp;ALT&lt;BR&gt;
      8012EKR&amp;nbsp;ALT&lt;BR&gt;
      1211P&lt;BR&gt;
      8012EKJ&lt;BR&gt;
      8012EKL&lt;BR&gt;
      8012EKQ&lt;BR&gt;
      8012EKR&lt;BR&gt;&lt;/FONT&gt;
    &lt;/TD&gt;
    &lt;TD BGCOLOR="#cccccc" ALIGN=CENTER&gt;&lt;FONT FACE=ARIAL SIZE=3&gt;
      -&lt;BR&gt;
      2101P&lt;BR&gt;
      2101W&lt;BR&gt;
      2101Y&lt;BR&gt;
      -&lt;BR&gt;
      -&lt;BR&gt;
      -&lt;BR&gt;
      -&lt;BR&gt;
      -&lt;BR&gt;
      -&lt;BR&gt;
      -&lt;BR&gt;
      -&lt;BR&gt;
      2102L&lt;BR&gt;
      2102S&lt;BR&gt;
      2102Y&lt;BR&gt;&lt;/FONT&gt;
    &lt;/TD&gt;
    &lt;TD BGCOLOR="#cccccc" ALIGN=CENTER&gt;&lt;FONT FACE=ARIAL SIZE=3&gt;
      -&lt;BR&gt;
      EVMCOG&lt;BR&gt;
      -&lt;BR&gt;
      -&lt;BR&gt;
      -&lt;BR&gt;
      -&lt;BR&gt;
      -&lt;BR&gt;
      -&lt;BR&gt;
      -&lt;BR&gt;
      -&lt;BR&gt;
      -&lt;BR&gt;
      -&lt;BR&gt;
      -&lt;BR&gt;
      -&lt;BR&gt;
      -&lt;BR&gt;&lt;/FONT&gt;
    &lt;/TD&gt;
    &lt;TD BGCOLOR="#cccccc" ALIGN=CENTER&gt;&lt;FONT FACE=ARIAL SIZE=3&gt;
      -&lt;BR&gt;
      43P&lt;BR&gt;
      43W&lt;BR&gt;
      43Y&lt;BR&gt;
      -&lt;BR&gt;
      -&lt;BR&gt;
      -&lt;BR&gt;
      -&lt;BR&gt;
      40L&lt;BR&gt;
      40P&lt;BR&gt;
      40Y&lt;BR&gt;
      70Y-T602&lt;BR&gt;
      70L&lt;BR&gt;
      70P&lt;BR&gt;
      70Y&lt;BR&gt;&lt;/FONT&gt;
    &lt;/TD&gt;
    &lt;TD BGCOLOR="#cccccc" ALIGN=CENTER&gt;&lt;FONT FACE=ARIAL SIZE=3&gt;
      -&lt;BR&gt;
      -&lt;BR&gt;
      -&lt;BR&gt;
      -&lt;BR&gt;
      -&lt;BR&gt;
      -&lt;BR&gt;
      -&lt;BR&gt;
      -&lt;BR&gt;
      RT/RTR12&lt;BR&gt;
      RT/RTR12&lt;BR&gt;
      RT/RTR12&lt;BR&gt;
      -&lt;BR&gt;
      RJ/RJR12&lt;BR&gt;
      RJ/RJR12&lt;BR&gt;
      RJ/RJR12&lt;BR&gt;&lt;/FONT&gt;
    &lt;/TD&gt;
  &lt;/TR&gt;
  &lt;TR&gt;
    &lt;TD COLSPAN=8&gt;&amp;nbsp;
    &lt;/TD&gt;
  &lt;/TR&gt;
  &lt;TR&gt;
    &lt;TD COLSPAN=8&gt;
      &lt;FONT SIZE=4 FACE=ARIAL&gt;&lt;B&gt;SQUARE MULTI-TURN&lt;/B&gt;&lt;/FONT&gt;
    &lt;/TD&gt;
  &lt;/TR&gt;
  &lt;TR&gt;
   &lt;TD ALIGN=CENTER&gt;
      &lt;FONT SIZE=3 FACE=ARIAL&gt;&lt;B&gt;BOURN&lt;/B&gt;&lt;/FONT&gt;
    &lt;/TD&gt;
    &lt;TD ALIGN=CENTER&gt;
      &lt;FONT SIZE=3 FACE=ARIAL&gt;&lt;B&gt;BI&amp;nbsp;TECH&lt;/B&gt;&lt;/FONT&gt;
    &lt;/TD&gt;
    &lt;TD ALIGN=CENTER&gt;
      &lt;FONT SIZE=3 FACE=ARIAL&gt;&lt;B&gt;DALE-VISHAY&lt;/B&gt;&lt;/FONT&gt;
    &lt;/TD&gt;
    &lt;TD ALIGN=CENTER&gt;
      &lt;FONT SIZE=3 FACE=ARIAL&gt;&lt;B&gt;PHILIPS/MEPCO&lt;/B&gt;&lt;/FONT&gt;
    &lt;/TD&gt;
    &lt;TD ALIGN=CENTER&gt;
      &lt;FONT SIZE=3 FACE=ARIAL&gt;&lt;B&gt;MURATA&lt;/B&gt;&lt;/FONT&gt;
    &lt;/TD&gt;
    &lt;TD ALIGN=CENTER&gt;
      &lt;FONT SIZE=3 FACE=ARIAL&gt;&lt;B&gt;PANASONIC&lt;/B&gt;&lt;/FONT&gt;
    &lt;/TD&gt;
    &lt;TD ALIGN=CENTER&gt;
      &lt;FONT SIZE=3 FACE=ARIAL&gt;&lt;B&gt;SPECTROL&lt;/B&gt;&lt;/FONT&gt;
    &lt;/TD&gt;
    &lt;TD ALIGN=CENTER&gt;
      &lt;FONT SIZE=3 FACE=ARIAL&gt;&lt;B&gt;MILSPEC&lt;/B&gt;&lt;/FONT&gt;
    &lt;/TD&gt;
  &lt;/TR&gt;
  &lt;TR&gt;
    &lt;TD BGCOLOR="#cccccc" ALIGN=CENTER&gt;&lt;FONT FACE=ARIAL SIZE=3&gt;
      3250L&lt;BR&gt;
      3250P&lt;BR&gt;
      3250W&lt;BR&gt;
      3250X&lt;BR&gt;
      3252P&lt;BR&gt;
      3252W&lt;BR&gt;
      3252X&lt;BR&gt;
      3260P&lt;BR&gt;
      3260W&lt;BR&gt;
      3260X&lt;BR&gt;
      3262P&lt;BR&gt;
      3262W&lt;BR&gt;
      3262X&lt;BR&gt;
      3266P&lt;BR&gt;
      3266W&lt;BR&gt;
      3266X&lt;BR&gt;
      3290H&lt;BR&gt;
      3290P&lt;BR&gt;
      3290W&lt;BR&gt;
      3292P&lt;BR&gt;
      3292W&lt;BR&gt;
      3292X&lt;BR&gt;
      3296P&lt;BR&gt;
      3296W&lt;BR&gt;
      3296X&lt;BR&gt;
      3296Y&lt;BR&gt;
      3296Z&lt;BR&gt;
      3299P&lt;BR&gt;
      3299W&lt;BR&gt;
      3299X&lt;BR&gt;
      3299Y&lt;BR&gt;
      3299Z&lt;BR&gt;&lt;/FONT&gt;
    &lt;/TD&gt;
    &lt;TD BGCOLOR="#cccccc" ALIGN=CENTER&gt;&lt;FONT FACE=ARIAL SIZE=3&gt;
      -&lt;BR&gt;
      66P&amp;nbsp;ALT&lt;BR&gt;
      66W&amp;nbsp;ALT&lt;BR&gt;
      66X&amp;nbsp;ALT&lt;BR&gt;
      66P&amp;nbsp;ALT&lt;BR&gt;
      66W&amp;nbsp;ALT&lt;BR&gt;
      66X&amp;nbsp;ALT&lt;BR&gt;
      -&lt;BR&gt;
      64W&amp;nbsp;ALT&lt;BR&gt;
      -&lt;BR&gt;
      64P&amp;nbsp;ALT&lt;BR&gt;
      64W&amp;nbsp;ALT&lt;BR&gt;
      64X&amp;nbsp;ALT&lt;BR&gt;
      64P&lt;BR&gt;
      64W&lt;BR&gt;
      64X&lt;BR&gt;
      66X&amp;nbsp;ALT&lt;BR&gt;
      66P&amp;nbsp;ALT&lt;BR&gt;
      66W&amp;nbsp;ALT&lt;BR&gt;
      66P&lt;BR&gt;
      66W&lt;BR&gt;
      66X&lt;BR&gt;
      67P&lt;BR&gt;
      67W&lt;BR&gt;
      67X&lt;BR&gt;
      67Y&lt;BR&gt;
      67Z&lt;BR&gt;
      68P&lt;BR&gt;
      68W&lt;BR&gt;
      68X&lt;BR&gt;
      67Y&amp;nbsp;ALT&lt;BR&gt;
      67Z&amp;nbsp;ALT&lt;BR&gt;&lt;/FONT&gt;
    &lt;/TD&gt;
    &lt;TD BGCOLOR="#cccccc" ALIGN=CENTER&gt;&lt;FONT FACE=ARIAL SIZE=3&gt;
      5050&lt;BR&gt;
      5091&lt;BR&gt;
      5080&lt;BR&gt;
      5087&lt;BR&gt;
      -&lt;BR&gt;
      -&lt;BR&gt;
      -&lt;BR&gt;
      -&lt;BR&gt;
      -&lt;BR&gt;
      -&lt;BR&gt;
      -&lt;BR&gt;
      T63YB&lt;BR&gt;
      T63XB&lt;BR&gt;
      -&lt;BR&gt;
      -&lt;BR&gt;
      -&lt;BR&gt;
      5887&lt;BR&gt;
      5891&lt;BR&gt;
      5880&lt;BR&gt;
      -&lt;BR&gt;
      -&lt;BR&gt;
      -&lt;BR&gt;
      T93Z&lt;BR&gt;
      T93YA&lt;BR&gt;
      T93XA&lt;BR&gt;
      T93YB&lt;BR&gt;
      T93XB&lt;BR&gt;
      -&lt;BR&gt;
      -&lt;BR&gt;
      -&lt;BR&gt;
      -&lt;BR&gt;
      -&lt;BR&gt;&lt;/FONT&gt;
    &lt;/TD&gt;
    &lt;TD BGCOLOR="#cccccc" ALIGN=CENTER&gt;&lt;FONT FACE=ARIAL SIZE=3&gt;
      -&lt;BR&gt;
      -&lt;BR&gt;
      -&lt;BR&gt;
      -&lt;BR&gt;
      -&lt;BR&gt;
      -&lt;BR&gt;
      -&lt;BR&gt;
      -&lt;BR&gt;
      -&lt;BR&gt;
      -&lt;BR&gt;
      8026EKP&lt;BR&gt;
      8026EKW&lt;BR&gt;
      8026EKM&lt;BR&gt;
      8026EKP&lt;BR&gt;
      8026EKB&lt;BR&gt;
      8026EKM&lt;BR&gt;
      1309X&lt;BR&gt;
      1309P&lt;BR&gt;
      1309W&lt;BR&gt;
      8024EKP&lt;BR&gt;
      8024EKW&lt;BR&gt;
      8024EKN&lt;BR&gt;
      RJ-9P/CT9P&lt;BR&gt;
      RJ-9W&lt;BR&gt;
      RJ-9X&lt;BR&gt;
      -&lt;BR&gt;
      -&lt;BR&gt;
      -&lt;BR&gt;
      -&lt;BR&gt;
      -&lt;BR&gt;
      -&lt;BR&gt;
      -&lt;BR&gt;&lt;/FONT&gt;
    &lt;/TD&gt;
    &lt;TD BGCOLOR="#cccccc" ALIGN=CENTER&gt;&lt;FONT FACE=ARIAL SIZE=3&gt;
      -&lt;BR&gt;
      -&lt;BR&gt;
      -&lt;BR&gt;
      -&lt;BR&gt;
      -&lt;BR&gt;
      -&lt;BR&gt;
      -&lt;BR&gt;
      -&lt;BR&gt;
      -&lt;BR&gt;
      -&lt;BR&gt;
      3103P&lt;BR&gt;
      3103Y&lt;BR&gt;
      3103Z&lt;BR&gt;
      3103P&lt;BR&gt;
      3103Y&lt;BR&gt;
      3103Z&lt;BR&gt;
      -&lt;BR&gt;
      -&lt;BR&gt;
      -&lt;BR&gt;
      -&lt;BR&gt;
      -&lt;BR&gt;
      -&lt;BR&gt;
      3105P/3106P&lt;BR&gt;
      3105W/3106W&lt;BR&gt;
      3105X/3106X&lt;BR&gt;
      3105Y/3106Y&lt;BR&gt;
      3105Z/3105Z&lt;BR&gt;
      3102P&lt;BR&gt;
      3102W&lt;BR&gt;
      3102X&lt;BR&gt;
      3102Y&lt;BR&gt;
      3102Z&lt;BR&gt;&lt;/FONT&gt;
    &lt;/TD&gt;
    &lt;TD BGCOLOR="#cccccc" ALIGN=CENTER&gt;&lt;FONT FACE=ARIAL SIZE=3&gt;
      -&lt;BR&gt;
      -&lt;BR&gt;
      -&lt;BR&gt;
      -&lt;BR&gt;
      -&lt;BR&gt;
      -&lt;BR&gt;
      -&lt;BR&gt;
      -&lt;BR&gt;
      -&lt;BR&gt;
      -&lt;BR&gt;
      -&lt;BR&gt;
      -&lt;BR&gt;
      -&lt;BR&gt;
      -&lt;BR&gt;
      -&lt;BR&gt;
      -&lt;BR&gt;
      -&lt;BR&gt;
      -&lt;BR&gt;
      -&lt;BR&gt;
      -&lt;BR&gt;
      -&lt;BR&gt;
      -&lt;BR&gt;
      EVMCBG&lt;BR&gt;
      EVMCCG&lt;BR&gt;
      -&lt;BR&gt;
      -&lt;BR&gt;
      -&lt;BR&gt;
      -&lt;BR&gt;
      -&lt;BR&gt;
      -&lt;BR&gt;
      -&lt;BR&gt;
      -&lt;BR&gt;&lt;/FONT&gt;
    &lt;/TD&gt;
    &lt;TD BGCOLOR="#cccccc" ALIGN=CENTER&gt;&lt;FONT FACE=ARIAL SIZE=3&gt;
      55-1-X&lt;BR&gt;
      55-4-X&lt;BR&gt;
      55-3-X&lt;BR&gt;
      55-2-X&lt;BR&gt;
      -&lt;BR&gt;
      -&lt;BR&gt;
      -&lt;BR&gt;
      -&lt;BR&gt;
      -&lt;BR&gt;
      -&lt;BR&gt;
      -&lt;BR&gt;
      -&lt;BR&gt;
      -&lt;BR&gt;
      -&lt;BR&gt;
      -&lt;BR&gt;
      -&lt;BR&gt;
      50-2-X&lt;BR&gt;
      50-4-X&lt;BR&gt;
      50-3-X&lt;BR&gt;
      -&lt;BR&gt;
      -&lt;BR&gt;
      -&lt;BR&gt;
      64P&lt;BR&gt;
      64W&lt;BR&gt;
      64X&lt;BR&gt;
      64Y&lt;BR&gt;
      64Z&lt;BR&gt;
      -&lt;BR&gt;
      -&lt;BR&gt;
      -&lt;BR&gt;
      -&lt;BR&gt;
      -&lt;BR&gt;&lt;/FONT&gt;
    &lt;/TD&gt;
    &lt;TD BGCOLOR="#cccccc" ALIGN=CENTER&gt;&lt;FONT FACE=ARIAL SIZE=3&gt;
      RT/RTR22&lt;BR&gt;
      RT/RTR22&lt;BR&gt;
      RT/RTR22&lt;BR&gt;
      RT/RTR22&lt;BR&gt;
      RJ/RJR22&lt;BR&gt;
      RJ/RJR22&lt;BR&gt;
      RJ/RJR22&lt;BR&gt;
      RT/RTR26&lt;BR&gt;
      RT/RTR26&lt;BR&gt;
      RT/RTR26&lt;BR&gt;
      RJ/RJR26&lt;BR&gt;
      RJ/RJR26&lt;BR&gt;
      RJ/RJR26&lt;BR&gt;
      RJ/RJR26&lt;BR&gt;
      RJ/RJR26&lt;BR&gt;
      RJ/RJR26&lt;BR&gt;
      RT/RTR24&lt;BR&gt;
      RT/RTR24&lt;BR&gt;
      RT/RTR24&lt;BR&gt;
      RJ/RJR24&lt;BR&gt;
      RJ/RJR24&lt;BR&gt;
      RJ/RJR24&lt;BR&gt;
      RJ/RJR24&lt;BR&gt;
      RJ/RJR24&lt;BR&gt;
      RJ/RJR24&lt;BR&gt;
      -&lt;BR&gt;
      -&lt;BR&gt;
      -&lt;BR&gt;
      -&lt;BR&gt;
      -&lt;BR&gt;
      -&lt;BR&gt;
      -&lt;BR&gt;&lt;/FONT&gt;
    &lt;/TD&gt;
  &lt;/TR&gt;
  &lt;TR&gt;
    &lt;TD COLSPAN=8&gt;&amp;nbsp;
    &lt;/TD&gt;
  &lt;/TR&gt;
  &lt;TR&gt;
    &lt;TD COLSPAN=8&gt;
      &lt;FONT SIZE=4 FACE=ARIAL&gt;&lt;B&gt;SINGLE TURN&lt;/B&gt;&lt;/FONT&gt;
    &lt;/TD&gt;
  &lt;/TR&gt;
  &lt;TR&gt;
    &lt;TD ALIGN=CENTER&gt;
      &lt;FONT SIZE=3 FACE=ARIAL&gt;&lt;B&gt;BOURN&lt;/B&gt;&lt;/FONT&gt;
    &lt;/TD&gt;
    &lt;TD ALIGN=CENTER&gt;
      &lt;FONT SIZE=3 FACE=ARIAL&gt;&lt;B&gt;BI&amp;nbsp;TECH&lt;/B&gt;&lt;/FONT&gt;
    &lt;/TD&gt;
    &lt;TD ALIGN=CENTER&gt;
      &lt;FONT SIZE=3 FACE=ARIAL&gt;&lt;B&gt;DALE-VISHAY&lt;/B&gt;&lt;/FONT&gt;
    &lt;/TD&gt;
    &lt;TD ALIGN=CENTER&gt;
      &lt;FONT SIZE=3 FACE=ARIAL&gt;&lt;B&gt;PHILIPS/MEPCO&lt;/B&gt;&lt;/FONT&gt;
    &lt;/TD&gt;
    &lt;TD ALIGN=CENTER&gt;
      &lt;FONT SIZE=3 FACE=ARIAL&gt;&lt;B&gt;MURATA&lt;/B&gt;&lt;/FONT&gt;
    &lt;/TD&gt;
    &lt;TD ALIGN=CENTER&gt;
      &lt;FONT SIZE=3 FACE=ARIAL&gt;&lt;B&gt;PANASONIC&lt;/B&gt;&lt;/FONT&gt;
    &lt;/TD&gt;
    &lt;TD ALIGN=CENTER&gt;
      &lt;FONT SIZE=3 FACE=ARIAL&gt;&lt;B&gt;SPECTROL&lt;/B&gt;&lt;/FONT&gt;
    &lt;/TD&gt;
    &lt;TD ALIGN=CENTER&gt;
      &lt;FONT SIZE=3 FACE=ARIAL&gt;&lt;B&gt;MILSPEC&lt;/B&gt;&lt;/FONT&gt;
    &lt;/TD&gt;
  &lt;/TR&gt;
  &lt;TR&gt;
    &lt;TD BGCOLOR="#cccccc" ALIGN=CENTER&gt;&lt;FONT FACE=ARIAL SIZE=3&gt;
      3323P&lt;BR&gt;
      3323S&lt;BR&gt;
      3323W&lt;BR&gt;
      3329H&lt;BR&gt;
      3329P&lt;BR&gt;
      3329W&lt;BR&gt;
      3339H&lt;BR&gt;
      3339P&lt;BR&gt;
      3339W&lt;BR&gt;
      3352E&lt;BR&gt;
      3352H&lt;BR&gt;
      3352K&lt;BR&gt;
      3352P&lt;BR&gt;
      3352T&lt;BR&gt;
      3352V&lt;BR&gt;
      3352W&lt;BR&gt;
      3362H&lt;BR&gt;
      3362M&lt;BR&gt;
      3362P&lt;BR&gt;
      3362R&lt;BR&gt;
      3362S&lt;BR&gt;
      3362U&lt;BR&gt;
      3362W&lt;BR&gt;
      3362X&lt;BR&gt;
      3386B&lt;BR&gt;
      3386C&lt;BR&gt;
      3386F&lt;BR&gt;
      3386H&lt;BR&gt;
      3386K&lt;BR&gt;
      3386M&lt;BR&gt;
      3386P&lt;BR&gt;
      3386S&lt;BR&gt;
      3386W&lt;BR&gt;
      3386X&lt;BR&gt;&lt;/FONT&gt;
    &lt;/TD&gt;
    &lt;TD BGCOLOR="#cccccc" ALIGN=CENTER&gt;&lt;FONT FACE=ARIAL SIZE=3&gt;
      25P&lt;BR&gt;
      25S&lt;BR&gt;
      25RX&lt;BR&gt;
      82P&lt;BR&gt;
      82M&lt;BR&gt;
      82PA&lt;BR&gt;
      -&lt;BR&gt;
      -&lt;BR&gt;
      -&lt;BR&gt;
      91E&lt;BR&gt;
      91X&lt;BR&gt;
      91T&lt;BR&gt;
      91B&lt;BR&gt;
      91A&lt;BR&gt;
      91V&lt;BR&gt;
      91W&lt;BR&gt;
      25W&lt;BR&gt;
      25V&lt;BR&gt;
      25P&lt;BR&gt;
      -&lt;BR&gt;
      25S&lt;BR&gt;
      25U&lt;BR&gt;
      25RX&lt;BR&gt;
      25X&lt;BR&gt;
      72XW&lt;BR&gt;
      72XL&lt;BR&gt;
      72PM&lt;BR&gt;
      72RX&lt;BR&gt;
      -&lt;BR&gt;
      72PX&lt;BR&gt;
      72P&lt;BR&gt;
      72RXW&lt;BR&gt;
      72RXL&lt;BR&gt;
      72X&lt;BR&gt;&lt;/FONT&gt;
    &lt;/TD&gt;
    &lt;TD BGCOLOR="#cccccc" ALIGN=CENTER&gt;&lt;FONT FACE=ARIAL SIZE=3&gt;
      -&lt;BR&gt;
      -&lt;BR&gt;
      -&lt;BR&gt;
      T7YB&lt;BR&gt;
      T7YA&lt;BR&gt;
      -&lt;BR&gt;
      -&lt;BR&gt;
      -&lt;BR&gt;
      -&lt;BR&gt;
      -&lt;BR&gt;
      -&lt;BR&gt;
      -&lt;BR&gt;
      -&lt;BR&gt;
      -&lt;BR&gt;
      -&lt;BR&gt;
      -&lt;BR&gt;
      -&lt;BR&gt;
      TXD&lt;BR&gt;
      TYA&lt;BR&gt;
      TYP&lt;BR&gt;
      -&lt;BR&gt;
      TYD&lt;BR&gt;
      TX&lt;BR&gt;
      -&lt;BR&gt;
      150SX&lt;BR&gt;
      100SX&lt;BR&gt;
      102T&lt;BR&gt;
      101S&lt;BR&gt;
      190T&lt;BR&gt;
      150TX&lt;BR&gt;
      101&lt;BR&gt;
      -&lt;BR&gt;
      -&lt;BR&gt;
      101SX&lt;BR&gt;&lt;/FONT&gt;
    &lt;/TD&gt;
    &lt;TD BGCOLOR="#cccccc" ALIGN=CENTER&gt;&lt;FONT FACE=ARIAL SIZE=3&gt;
      ET6P&lt;BR&gt;
      ET6S&lt;BR&gt;
      ET6X&lt;BR&gt;
      RJ-6W/8014EMW&lt;BR&gt;
      RJ-6P/8014EMP&lt;BR&gt;
      RJ-6X/8014EMX&lt;BR&gt;
      TM7W&lt;BR&gt;
      TM7P&lt;BR&gt;
      TM7X&lt;BR&gt;
      -&lt;BR&gt;
      8017SMS&lt;BR&gt;
      -&lt;BR&gt;
      8017SMB&lt;BR&gt;
      8017SMA&lt;BR&gt;
      -&lt;BR&gt;
      -&lt;BR&gt;
      CT-6W&lt;BR&gt;
      CT-6H&lt;BR&gt;
      CT-6P&lt;BR&gt;
      CT-6R&lt;BR&gt;
      -&lt;BR&gt;
      CT-6V&lt;BR&gt;
      CT-6X&lt;BR&gt;
      -&lt;BR&gt;
      -&lt;BR&gt;
      8038EKV&lt;BR&gt;
      -&lt;BR&gt;
      8038EKX&lt;BR&gt;
      -&lt;BR&gt;
      -&lt;BR&gt;
      8038EKP&lt;BR&gt;
      8038EKZ&lt;BR&gt;
      8038EKW&lt;BR&gt;
      -&lt;BR&gt;&lt;/FONT&gt;
    &lt;/TD&gt;
    &lt;TD BGCOLOR="#cccccc" ALIGN=CENTER&gt;&lt;FONT FACE=ARIAL SIZE=3&gt;
      -&lt;BR&gt;
      -&lt;BR&gt;
      -&lt;BR&gt;
      3321H&lt;BR&gt;
      3321P&lt;BR&gt;
      3321N&lt;BR&gt;
      1102H&lt;BR&gt;
      1102P&lt;BR&gt;
      1102T&lt;BR&gt;
      RVA0911V304A&lt;BR&gt;
      -&lt;BR&gt;
      RVA0911H413A&lt;BR&gt;
      RVG0707V100A&lt;BR&gt;
      RVA0607V(H)306A&lt;BR&gt;
      RVA1214H213A&lt;BR&gt;
      -&lt;BR&gt;
      -&lt;BR&gt;
      -&lt;BR&gt;
      -&lt;BR&gt;
      -&lt;BR&gt;
      -&lt;BR&gt;
      -&lt;BR&gt;
      -&lt;BR&gt;
      -&lt;BR&gt;
      3104B&lt;BR&gt;
      3104C&lt;BR&gt;
      3104F&lt;BR&gt;
      3104H&lt;BR&gt;
      -&lt;BR&gt;
      3104M&lt;BR&gt;
      3104P&lt;BR&gt;
      3104S&lt;BR&gt;
      3104W&lt;BR&gt;
      3104X&lt;BR&gt;&lt;/FONT&gt;
    &lt;/TD&gt;
    &lt;TD BGCOLOR="#cccccc" ALIGN=CENTER&gt;&lt;FONT FACE=ARIAL SIZE=3&gt;
      EVMQ0G&lt;BR&gt;
      EVMQIG&lt;BR&gt;
      EVMQ3G&lt;BR&gt;
      EVMS0G&lt;BR&gt;
      EVMQ0G&lt;BR&gt;
      EVMG0G&lt;BR&gt;
      -&lt;BR&gt;
      -&lt;BR&gt;
      -&lt;BR&gt;
      EVMK4GA00B&lt;BR&gt;
      EVM30GA00B&lt;BR&gt;
      EVMK0GA00B&lt;BR&gt;
      EVM38GA00B&lt;BR&gt;
      EVMB6&lt;BR&gt;
      EVLQ0&lt;BR&gt;
      -&lt;BR&gt;
      EVMMSG&lt;BR&gt;
      EVMMBG&lt;BR&gt;
      EVMMAG&lt;BR&gt;
      -&lt;BR&gt;
      -&lt;BR&gt;
      EVMMCS&lt;BR&gt;
      -&lt;BR&gt;
      -&lt;BR&gt;
      -&lt;BR&gt;
      -&lt;BR&gt;
      -&lt;BR&gt;
      EVMM1&lt;BR&gt;
      -&lt;BR&gt;
      -&lt;BR&gt;
      EVMM0&lt;BR&gt;
      -&lt;BR&gt;
      -&lt;BR&gt;
      EVMM3&lt;BR&gt;&lt;/FONT&gt;
    &lt;/TD&gt;
    &lt;TD BGCOLOR="#cccccc" ALIGN=CENTER&gt;&lt;FONT FACE=ARIAL SIZE=3&gt;
      -&lt;BR&gt;
      -&lt;BR&gt;
      -&lt;BR&gt;
      62-3-1&lt;BR&gt;
      62-1-2&lt;BR&gt;
      -&lt;BR&gt;
      -&lt;BR&gt;
      -&lt;BR&gt;
      -&lt;BR&gt;
      -&lt;BR&gt;
      -&lt;BR&gt;
      -&lt;BR&gt;
      -&lt;BR&gt;
      -&lt;BR&gt;
      -&lt;BR&gt;
      -&lt;BR&gt;
      67R&lt;BR&gt;
      -&lt;BR&gt;
      67P&lt;BR&gt;
      -&lt;BR&gt;
      -&lt;BR&gt;
      -&lt;BR&gt;
      -&lt;BR&gt;
      67X&lt;BR&gt;
      63V&lt;BR&gt;
      63S&lt;BR&gt;
      63M&lt;BR&gt;
      -&lt;BR&gt;
      -&lt;BR&gt;
      63H&lt;BR&gt;
      63P&lt;BR&gt;
      -&lt;BR&gt;
      -&lt;BR&gt;
      63X&lt;BR&gt;&lt;/FONT&gt;
    &lt;/TD&gt;
    &lt;TD BGCOLOR="#cccccc" ALIGN=CENTER&gt;&lt;FONT FACE=ARIAL SIZE=3&gt;
      -&lt;BR&gt;
      -&lt;BR&gt;
      -&lt;BR&gt;
      RJ/RJR50&lt;BR&gt;
      RJ/RJR50&lt;BR&gt;
      RJ/RJR50&lt;BR&gt;
      -&lt;BR&gt;
      -&lt;BR&gt;
      -&lt;BR&gt;
      -&lt;BR&gt;
      -&lt;BR&gt;
      -&lt;BR&gt;
      -&lt;BR&gt;
      -&lt;BR&gt;
      -&lt;BR&gt;
      -&lt;BR&gt;
      -&lt;BR&gt;
      -&lt;BR&gt;
      -&lt;BR&gt;
      -&lt;BR&gt;
      -&lt;BR&gt;
      -&lt;BR&gt;
      -&lt;BR&gt;
      -&lt;BR&gt;
      -&lt;BR&gt;
      -&lt;BR&gt;
      -&lt;BR&gt;
      -&lt;BR&gt;
      -&lt;BR&gt;
      -&lt;BR&gt;
      -&lt;BR&gt;
      -&lt;BR&gt;
      -&lt;BR&gt;
      -&lt;BR&gt;&lt;/FONT&gt;
    &lt;/TD&gt;
  &lt;/TR&gt;
&lt;/TABLE&gt;
&lt;P&gt;&amp;nbsp;&lt;P&gt;
&lt;TABLE BORDER=0 CELLSPACING=1 CELLPADDING=3&gt;
  &lt;TR&gt;
    &lt;TD COLSPAN=7&gt;
      &lt;FONT color="#0000FF" SIZE=4 FACE=ARIAL&gt;&lt;B&gt;SMD TRIM-POT CROSS REFERENCE&lt;/B&gt;&lt;/FONT&gt;
      &lt;P&gt;
      &lt;FONT SIZE=4 FACE=ARIAL&gt;&lt;B&gt;MULTI-TURN&lt;/B&gt;&lt;/FONT&gt;
    &lt;/TD&gt;
  &lt;/TR&gt;
  &lt;TR&gt;
    &lt;TD&gt;
      &lt;FONT SIZE=3 FACE=ARIAL&gt;&lt;B&gt;BOURNS&lt;/B&gt;&lt;/FONT&gt;
    &lt;/TD&gt;
    &lt;TD&gt;
      &lt;FONT SIZE=3 FACE=ARIAL&gt;&lt;B&gt;BI&amp;nbsp;TECH&lt;/B&gt;&lt;/FONT&gt;
    &lt;/TD&gt;
    &lt;TD&gt;
      &lt;FONT SIZE=3 FACE=ARIAL&gt;&lt;B&gt;DALE-VISHAY&lt;/B&gt;&lt;/FONT&gt;
    &lt;/TD&gt;
    &lt;TD&gt;
      &lt;FONT SIZE=3 FACE=ARIAL&gt;&lt;B&gt;PHILIPS/MEPCO&lt;/B&gt;&lt;/FONT&gt;
    &lt;/TD&gt;
    &lt;TD&gt;
      &lt;FONT SIZE=3 FACE=ARIAL&gt;&lt;B&gt;PANASONIC&lt;/B&gt;&lt;/FONT&gt;
    &lt;/TD&gt;
    &lt;TD&gt;
      &lt;FONT SIZE=3 FACE=ARIAL&gt;&lt;B&gt;TOCOS&lt;/B&gt;&lt;/FONT&gt;
    &lt;/TD&gt;
    &lt;TD&gt;
      &lt;FONT SIZE=3 FACE=ARIAL&gt;&lt;B&gt;AUX/KYOCERA&lt;/B&gt;&lt;/FONT&gt;
    &lt;/TD&gt;
  &lt;/TR&gt;
  &lt;TR&gt;
    &lt;TD BGCOLOR="#cccccc" ALIGN=CENTER&gt;&lt;FONT FACE=ARIAL SIZE=3&gt;
      3224G&lt;BR&gt;
      3224J&lt;BR&gt;
      3224W&lt;BR&gt;
      3269P&lt;BR&gt;
      3269W&lt;BR&gt;
      3269X&lt;BR&gt;&lt;/FONT&gt;
    &lt;/TD&gt;
    &lt;TD BGCOLOR="#cccccc" ALIGN=CENTER&gt;&lt;FONT FACE=ARIAL SIZE=3&gt;
      44G&lt;BR&gt;
      44J&lt;BR&gt;
      44W&lt;BR&gt;
      84P&lt;BR&gt;
      84W&lt;BR&gt;
      84X&lt;BR&gt;&lt;/FONT&gt;
    &lt;/TD&gt;
    &lt;TD BGCOLOR="#cccccc" ALIGN=CENTER&gt;&lt;FONT FACE=ARIAL SIZE=3&gt;
      -&lt;BR&gt;
      -&lt;BR&gt;
      -&lt;BR&gt;
      ST63Z&lt;BR&gt;
      ST63Y&lt;BR&gt;
      -&lt;BR&gt;&lt;/FONT&gt;
    &lt;/TD&gt;
    &lt;TD BGCOLOR="#cccccc" ALIGN=CENTER&gt;&lt;FONT FACE=ARIAL SIZE=3&gt;
      -&lt;BR&gt;
      -&lt;BR&gt;
      -&lt;BR&gt;
      ST5P&lt;BR&gt;
      ST5W&lt;BR&gt;
      ST5X&lt;BR&gt;&lt;/FONT&gt;
    &lt;/TD&gt;
    &lt;TD BGCOLOR="#cccccc" ALIGN=CENTER&gt;&lt;FONT FACE=ARIAL SIZE=3&gt;
      -&lt;BR&gt;
      -&lt;BR&gt;
      -&lt;BR&gt;
      -&lt;BR&gt;
      -&lt;BR&gt;
      -&lt;BR&gt;&lt;/FONT&gt;
    &lt;/TD&gt;
    &lt;TD BGCOLOR="#cccccc" ALIGN=CENTER&gt;&lt;FONT FACE=ARIAL SIZE=3&gt;
      -&lt;BR&gt;
      -&lt;BR&gt;
      -&lt;BR&gt;
      -&lt;BR&gt;
      -&lt;BR&gt;
      -&lt;BR&gt;&lt;/FONT&gt;
    &lt;/TD&gt;
    &lt;TD BGCOLOR="#cccccc" ALIGN=CENTER&gt;&lt;FONT FACE=ARIAL SIZE=3&gt;
      -&lt;BR&gt;
      -&lt;BR&gt;
      -&lt;BR&gt;
      -&lt;BR&gt;
      -&lt;BR&gt;
      -&lt;BR&gt;&lt;/FONT&gt;
    &lt;/TD&gt;
  &lt;/TR&gt;
  &lt;TR&gt;
    &lt;TD COLSPAN=7&gt;&amp;nbsp;
    &lt;/TD&gt;
  &lt;/TR&gt;
  &lt;TR&gt;
    &lt;TD COLSPAN=7&gt;
      &lt;FONT SIZE=4 FACE=ARIAL&gt;&lt;B&gt;SINGLE TURN&lt;/B&gt;&lt;/FONT&gt;
    &lt;/TD&gt;
  &lt;/TR&gt;
  &lt;TR&gt;
    &lt;TD&gt;
      &lt;FONT SIZE=3 FACE=ARIAL&gt;&lt;B&gt;BOURNS&lt;/B&gt;&lt;/FONT&gt;
    &lt;/TD&gt;
    &lt;TD&gt;
      &lt;FONT SIZE=3 FACE=ARIAL&gt;&lt;B&gt;BI&amp;nbsp;TECH&lt;/B&gt;&lt;/FONT&gt;
    &lt;/TD&gt;
    &lt;TD&gt;
      &lt;FONT SIZE=3 FACE=ARIAL&gt;&lt;B&gt;DALE-VISHAY&lt;/B&gt;&lt;/FONT&gt;
    &lt;/TD&gt;
    &lt;TD&gt;
      &lt;FONT SIZE=3 FACE=ARIAL&gt;&lt;B&gt;PHILIPS/MEPCO&lt;/B&gt;&lt;/FONT&gt;
    &lt;/TD&gt;
    &lt;TD&gt;
      &lt;FONT SIZE=3 FACE=ARIAL&gt;&lt;B&gt;PANASONIC&lt;/B&gt;&lt;/FONT&gt;
    &lt;/TD&gt;
    &lt;TD&gt;
      &lt;FONT SIZE=3 FACE=ARIAL&gt;&lt;B&gt;TOCOS&lt;/B&gt;&lt;/FONT&gt;
    &lt;/TD&gt;
    &lt;TD&gt;
      &lt;FONT SIZE=3 FACE=ARIAL&gt;&lt;B&gt;AUX/KYOCERA&lt;/B&gt;&lt;/FONT&gt;
    &lt;/TD&gt;
  &lt;/TR&gt;
  &lt;TR&gt;
    &lt;TD BGCOLOR="#cccccc" ALIGN=CENTER&gt;&lt;FONT FACE=ARIAL SIZE=3&gt;
      3314G&lt;BR&gt;
      3314J&lt;BR&gt;
      3364A/B&lt;BR&gt;
      3364C/D&lt;BR&gt;
      3364W/X&lt;BR&gt;
      3313G&lt;BR&gt;
      3313J&lt;BR&gt;&lt;/FONT&gt;
    &lt;/TD&gt;
    &lt;TD BGCOLOR="#cccccc" ALIGN=CENTER&gt;&lt;FONT FACE=ARIAL SIZE=3&gt;
      23B&lt;BR&gt;
      23A&lt;BR&gt;
      21X&lt;BR&gt;
      21W&lt;BR&gt;
      -&lt;BR&gt;
      22B&lt;BR&gt;
      22A&lt;BR&gt;&lt;/FONT&gt;
    &lt;/TD&gt;
    &lt;TD BGCOLOR="#cccccc" ALIGN=CENTER&gt;&lt;FONT FACE=ARIAL SIZE=3&gt;
      ST5YL/ST53YL&lt;BR&gt;
      ST5YJ/5T53YJ&lt;BR&gt;
      ST-23A&lt;BR&gt;
      ST-22B&lt;BR&gt;
      ST-22&lt;BR&gt;
      -&lt;BR&gt;
      -&lt;BR&gt;&lt;/FONT&gt;
    &lt;/TD&gt;
    &lt;TD BGCOLOR="#cccccc" ALIGN=CENTER&gt;&lt;FONT FACE=ARIAL SIZE=3&gt;
      ST-4B&lt;BR&gt;
      ST-4A&lt;BR&gt;
      -&lt;BR&gt;
      -&lt;BR&gt;
      -&lt;BR&gt;
      ST-3B&lt;BR&gt;
      ST-3A&lt;BR&gt;&lt;/FONT&gt;
    &lt;/TD&gt;
    &lt;TD BGCOLOR="#cccccc" ALIGN=CENTER&gt;&lt;FONT FACE=ARIAL SIZE=3&gt;
      -&lt;BR&gt;
      EVM-6YS&lt;BR&gt;
      EVM-1E&lt;BR&gt;
      EVM-1G&lt;BR&gt;
      EVM-1D&lt;BR&gt;
      -&lt;BR&gt;
      -&lt;BR&gt;&lt;/FONT&gt;
    &lt;/TD&gt;
    &lt;TD BGCOLOR="#cccccc" ALIGN=CENTER&gt;&lt;FONT FACE=ARIAL SIZE=3&gt;
      G4B&lt;BR&gt;
      G4A&lt;BR&gt;
      TR04-3S1&lt;BR&gt;
      TRG04-2S1&lt;BR&gt;
      -&lt;BR&gt;
      -&lt;BR&gt;
      -&lt;BR&gt;&lt;/FONT&gt;
    &lt;/TD&gt;
    &lt;TD BGCOLOR="#cccccc" ALIGN=CENTER&gt;&lt;FONT FACE=ARIAL SIZE=3&gt;
      -&lt;BR&gt;
      -&lt;BR&gt;
      DVR-43A&lt;BR&gt;
      CVR-42C&lt;BR&gt;
      CVR-42A/C&lt;BR&gt;
      -&lt;BR&gt;
      -&lt;BR&gt;&lt;/FONT&gt;
    &lt;/TD&gt;
  &lt;/TR&gt;
&lt;/TABLE&gt;
&lt;P&gt;
&lt;FONT SIZE=4 FACE=ARIAL&gt;&lt;B&gt;ALT =&amp;nbsp;ALTERNATE&lt;/B&gt;&lt;/FONT&gt;
&lt;P&gt;

&amp;nbsp;
&lt;P&gt;
&lt;/td&gt;
&lt;/tr&gt;
&lt;/table&gt;
&lt;/BODY&gt;&lt;/HTML&gt;</description>
<packages>
<package name="M1206">
<description>&lt;b&gt;RESISTOR&lt;/b&gt;&lt;p&gt;
MELF 0.25 W</description>
<wire x1="-2.473" y1="1.483" x2="2.473" y2="1.483" width="0.0508" layer="39"/>
<wire x1="2.473" y1="-1.483" x2="-2.473" y2="-1.483" width="0.0508" layer="39"/>
<wire x1="-2.473" y1="-1.483" x2="-2.473" y2="1.483" width="0.0508" layer="39"/>
<wire x1="2.473" y1="1.483" x2="2.473" y2="-1.483" width="0.0508" layer="39"/>
<wire x1="1.143" y1="0.8382" x2="-1.143" y2="0.8382" width="0.1524" layer="51"/>
<wire x1="1.143" y1="-0.8382" x2="-1.143" y2="-0.8382" width="0.1524" layer="51"/>
<smd name="1" x="-1.4" y="0" dx="1.6" dy="2" layer="1"/>
<smd name="2" x="1.4" y="0" dx="1.6" dy="2" layer="1"/>
<text x="-1.27" y="1.27" size="1.27" layer="25">&gt;NAME</text>
<text x="-1.27" y="-2.54" size="1.27" layer="27">&gt;VALUE</text>
<rectangle x1="-1.7018" y1="-0.9144" x2="-1.1176" y2="0.9144" layer="51"/>
<rectangle x1="1.1176" y1="-0.9144" x2="1.7018" y2="0.9144" layer="51"/>
<rectangle x1="-0.3" y1="-0.8001" x2="0.3" y2="0.8001" layer="35"/>
</package>
<package name="R1206W">
<description>&lt;b&gt;RESISTOR&lt;/b&gt;&lt;p&gt;
wave soldering</description>
<wire x1="-0.913" y1="0.8" x2="0.888" y2="0.8" width="0.1524" layer="51"/>
<wire x1="-0.913" y1="-0.8" x2="0.888" y2="-0.8" width="0.1524" layer="51"/>
<wire x1="-2.473" y1="0.983" x2="2.473" y2="0.983" width="0.0508" layer="39"/>
<wire x1="2.473" y1="0.983" x2="2.473" y2="-0.983" width="0.0508" layer="39"/>
<wire x1="2.473" y1="-0.983" x2="-2.473" y2="-0.983" width="0.0508" layer="39"/>
<wire x1="-2.473" y1="-0.983" x2="-2.473" y2="0.983" width="0.0508" layer="39"/>
<smd name="1" x="-1.499" y="0" dx="1.8" dy="1.2" layer="1"/>
<smd name="2" x="1.499" y="0" dx="1.8" dy="1.2" layer="1"/>
<text x="-1.905" y="1.27" size="1.27" layer="25">&gt;NAME</text>
<text x="-1.905" y="-2.54" size="1.27" layer="27">&gt;VALUE</text>
<rectangle x1="-1.651" y1="-0.8763" x2="-0.9009" y2="0.8738" layer="51"/>
<rectangle x1="0.889" y1="-0.8763" x2="1.6391" y2="0.8738" layer="51"/>
<rectangle x1="-0.3" y1="-0.7" x2="0.3" y2="0.7" layer="35"/>
</package>
</packages>
</library>
<library name="uln-udn">
<description>&lt;b&gt;Driver Arrays&lt;/b&gt;&lt;p&gt;
ULN and UDN Series&lt;p&gt;
&lt;author&gt;Created by librarian@cadsoft.de&lt;/author&gt;</description>
<packages>
<package name="SO16">
<description>&lt;b&gt;Small Outline Package&lt;/b&gt;</description>
<wire x1="4.699" y1="1.9558" x2="-4.699" y2="1.9558" width="0.1524" layer="21"/>
<wire x1="4.699" y1="-1.9558" x2="5.08" y2="-1.5748" width="0.1524" layer="21" curve="90"/>
<wire x1="-5.08" y1="1.5748" x2="-4.699" y2="1.9558" width="0.1524" layer="21" curve="-90"/>
<wire x1="4.699" y1="1.9558" x2="5.08" y2="1.5748" width="0.1524" layer="21" curve="-90"/>
<wire x1="-5.08" y1="-1.5748" x2="-4.699" y2="-1.9558" width="0.1524" layer="21" curve="90"/>
<wire x1="-4.699" y1="-1.9558" x2="4.699" y2="-1.9558" width="0.1524" layer="21"/>
<wire x1="5.08" y1="-1.5748" x2="5.08" y2="1.5748" width="0.1524" layer="21"/>
<wire x1="-5.08" y1="1.5748" x2="-5.08" y2="-1.5748" width="0.1524" layer="21"/>
<wire x1="-5.08" y1="0.508" x2="-5.08" y2="-0.508" width="0.1524" layer="21" curve="-180"/>
<wire x1="-5.08" y1="-1.6002" x2="5.08" y2="-1.6002" width="0.0508" layer="21"/>
<smd name="1" x="-4.445" y="-3.0734" dx="0.6604" dy="2.032" layer="1"/>
<smd name="16" x="-4.445" y="3.0734" dx="0.6604" dy="2.032" layer="1"/>
<smd name="2" x="-3.175" y="-3.0734" dx="0.6604" dy="2.032" layer="1"/>
<smd name="3" x="-1.905" y="-3.0734" dx="0.6604" dy="2.032" layer="1"/>
<smd name="15" x="-3.175" y="3.0734" dx="0.6604" dy="2.032" layer="1"/>
<smd name="14" x="-1.905" y="3.0734" dx="0.6604" dy="2.032" layer="1"/>
<smd name="4" x="-0.635" y="-3.0734" dx="0.6604" dy="2.032" layer="1"/>
<smd name="13" x="-0.635" y="3.0734" dx="0.6604" dy="2.032" layer="1"/>
<smd name="5" x="0.635" y="-3.0734" dx="0.6604" dy="2.032" layer="1"/>
<smd name="12" x="0.635" y="3.0734" dx="0.6604" dy="2.032" layer="1"/>
<smd name="6" x="1.905" y="-3.0734" dx="0.6604" dy="2.032" layer="1"/>
<smd name="7" x="3.175" y="-3.0734" dx="0.6604" dy="2.032" layer="1"/>
<smd name="11" x="1.905" y="3.0734" dx="0.6604" dy="2.032" layer="1"/>
<smd name="10" x="3.175" y="3.0734" dx="0.6604" dy="2.032" layer="1"/>
<smd name="8" x="4.445" y="-3.0734" dx="0.6604" dy="2.032" layer="1"/>
<smd name="9" x="4.445" y="3.0734" dx="0.6604" dy="2.032" layer="1"/>
<text x="-4.064" y="-0.635" size="1.27" layer="27" ratio="10">&gt;VALUE</text>
<text x="-5.461" y="-1.778" size="1.27" layer="25" ratio="10" rot="R90">&gt;NAME</text>
<rectangle x1="-0.889" y1="1.9558" x2="-0.381" y2="3.0988" layer="51"/>
<rectangle x1="-4.699" y1="-3.0988" x2="-4.191" y2="-1.9558" layer="51"/>
<rectangle x1="-3.429" y1="-3.0988" x2="-2.921" y2="-1.9558" layer="51"/>
<rectangle x1="-2.159" y1="-3.0734" x2="-1.651" y2="-1.9304" layer="51"/>
<rectangle x1="-0.889" y1="-3.0988" x2="-0.381" y2="-1.9558" layer="51"/>
<rectangle x1="-2.159" y1="1.9558" x2="-1.651" y2="3.0988" layer="51"/>
<rectangle x1="-3.429" y1="1.9558" x2="-2.921" y2="3.0988" layer="51"/>
<rectangle x1="-4.699" y1="1.9558" x2="-4.191" y2="3.0988" layer="51"/>
<rectangle x1="0.381" y1="-3.0988" x2="0.889" y2="-1.9558" layer="51"/>
<rectangle x1="1.651" y1="-3.0988" x2="2.159" y2="-1.9558" layer="51"/>
<rectangle x1="2.921" y1="-3.0988" x2="3.429" y2="-1.9558" layer="51"/>
<rectangle x1="4.191" y1="-3.0988" x2="4.699" y2="-1.9558" layer="51"/>
<rectangle x1="0.381" y1="1.9558" x2="0.889" y2="3.0988" layer="51"/>
<rectangle x1="1.651" y1="1.9558" x2="2.159" y2="3.0988" layer="51"/>
<rectangle x1="2.921" y1="1.9558" x2="3.429" y2="3.0988" layer="51"/>
<rectangle x1="4.191" y1="1.9558" x2="4.699" y2="3.0988" layer="51"/>
</package>
</packages>
</library>
</libraries>
<attributes>
</attributes>
<variantdefs>
</variantdefs>
<classes>
<class number="0" name="default" width="0" drill="0">
</class>
</classes>
<designrules name="default *">
<description language="de">&lt;b&gt;EAGLE Design Rules&lt;/b&gt;
&lt;p&gt;
Die Standard-Design-Rules sind so gewählt, dass sie für 
die meisten Anwendungen passen. Sollte ihre Platine 
besondere Anforderungen haben, treffen Sie die erforderlichen
Einstellungen hier und speichern die Design Rules unter 
einem neuen Namen ab.</description>
<description language="en">&lt;b&gt;EAGLE Design Rules&lt;/b&gt;
&lt;p&gt;
The default Design Rules have been set to cover
a wide range of applications. Your particular design
may have different requirements, so please make the
necessary adjustments and save your customized
design rules under a new name.</description>
<param name="layerSetup" value="(1*16)"/>
<param name="mtCopper" value="0.035mm 0.035mm 0.035mm 0.035mm 0.035mm 0.035mm 0.035mm 0.035mm 0.035mm 0.035mm 0.035mm 0.035mm 0.035mm 0.035mm 0.035mm 0.035mm"/>
<param name="mtIsolate" value="1.5mm 0.15mm 0.2mm 0.15mm 0.2mm 0.15mm 0.2mm 0.15mm 0.2mm 0.15mm 0.2mm 0.15mm 0.2mm 0.15mm 0.2mm"/>
<param name="mdWireWire" value="8mil"/>
<param name="mdWirePad" value="8mil"/>
<param name="mdWireVia" value="8mil"/>
<param name="mdPadPad" value="8mil"/>
<param name="mdPadVia" value="8mil"/>
<param name="mdViaVia" value="8mil"/>
<param name="mdSmdPad" value="8mil"/>
<param name="mdSmdVia" value="8mil"/>
<param name="mdSmdSmd" value="8mil"/>
<param name="mdViaViaSameLayer" value="8mil"/>
<param name="mnLayersViaInSmd" value="2"/>
<param name="mdCopperDimension" value="40mil"/>
<param name="mdDrill" value="8mil"/>
<param name="mdSmdStop" value="0mil"/>
<param name="msWidth" value="10mil"/>
<param name="msDrill" value="10mil"/>
<param name="msMicroVia" value="9.99mm"/>
<param name="msBlindViaRatio" value="0.5"/>
<param name="rvPadTop" value="0.25"/>
<param name="rvPadInner" value="0.25"/>
<param name="rvPadBottom" value="0.25"/>
<param name="rvViaOuter" value="0.25"/>
<param name="rvViaInner" value="0.25"/>
<param name="rvMicroViaOuter" value="0.25"/>
<param name="rvMicroViaInner" value="0.25"/>
<param name="rlMinPadTop" value="10mil"/>
<param name="rlMaxPadTop" value="20mil"/>
<param name="rlMinPadInner" value="10mil"/>
<param name="rlMaxPadInner" value="20mil"/>
<param name="rlMinPadBottom" value="10mil"/>
<param name="rlMaxPadBottom" value="20mil"/>
<param name="rlMinViaOuter" value="8mil"/>
<param name="rlMaxViaOuter" value="20mil"/>
<param name="rlMinViaInner" value="8mil"/>
<param name="rlMaxViaInner" value="20mil"/>
<param name="rlMinMicroViaOuter" value="4mil"/>
<param name="rlMaxMicroViaOuter" value="20mil"/>
<param name="rlMinMicroViaInner" value="4mil"/>
<param name="rlMaxMicroViaInner" value="20mil"/>
<param name="psTop" value="-1"/>
<param name="psBottom" value="-1"/>
<param name="psFirst" value="-1"/>
<param name="psElongationLong" value="100"/>
<param name="psElongationOffset" value="100"/>
<param name="mvStopFrame" value="1"/>
<param name="mvCreamFrame" value="0"/>
<param name="mlMinStopFrame" value="4mil"/>
<param name="mlMaxStopFrame" value="4mil"/>
<param name="mlMinCreamFrame" value="0mil"/>
<param name="mlMaxCreamFrame" value="0mil"/>
<param name="mlViaStopLimit" value="0mil"/>
<param name="srRoundness" value="0"/>
<param name="srMinRoundness" value="0mil"/>
<param name="srMaxRoundness" value="0mil"/>
<param name="slThermalIsolate" value="10mil"/>
<param name="slThermalsForVias" value="0"/>
<param name="dpMaxLengthDifference" value="10mm"/>
<param name="dpGapFactor" value="2.5"/>
<param name="checkGrid" value="0"/>
<param name="checkAngle" value="0"/>
<param name="checkFont" value="1"/>
<param name="checkRestrict" value="1"/>
<param name="useDiameter" value="13"/>
<param name="maxErrors" value="50"/>
</designrules>
<autorouter>
<pass name="Default">
<param name="RoutingGrid" value="50mil"/>
<param name="AutoGrid" value="1"/>
<param name="Efforts" value="0"/>
<param name="TopRouterVariant" value="1"/>
<param name="tpViaShape" value="round"/>
<param name="PrefDir.1" value="a"/>
<param name="PrefDir.2" value="0"/>
<param name="PrefDir.3" value="0"/>
<param name="PrefDir.4" value="0"/>
<param name="PrefDir.5" value="0"/>
<param name="PrefDir.6" value="0"/>
<param name="PrefDir.7" value="0"/>
<param name="PrefDir.8" value="0"/>
<param name="PrefDir.9" value="0"/>
<param name="PrefDir.10" value="0"/>
<param name="PrefDir.11" value="0"/>
<param name="PrefDir.12" value="0"/>
<param name="PrefDir.13" value="0"/>
<param name="PrefDir.14" value="0"/>
<param name="PrefDir.15" value="0"/>
<param name="PrefDir.16" value="a"/>
<param name="cfVia" value="8"/>
<param name="cfNonPref" value="5"/>
<param name="cfChangeDir" value="2"/>
<param name="cfOrthStep" value="2"/>
<param name="cfDiagStep" value="3"/>
<param name="cfExtdStep" value="0"/>
<param name="cfBonusStep" value="1"/>
<param name="cfMalusStep" value="1"/>
<param name="cfPadImpact" value="4"/>
<param name="cfSmdImpact" value="4"/>
<param name="cfBusImpact" value="0"/>
<param name="cfHugging" value="3"/>
<param name="cfAvoid" value="4"/>
<param name="cfPolygon" value="10"/>
<param name="cfBase.1" value="0"/>
<param name="cfBase.2" value="1"/>
<param name="cfBase.3" value="1"/>
<param name="cfBase.4" value="1"/>
<param name="cfBase.5" value="1"/>
<param name="cfBase.6" value="1"/>
<param name="cfBase.7" value="1"/>
<param name="cfBase.8" value="1"/>
<param name="cfBase.9" value="1"/>
<param name="cfBase.10" value="1"/>
<param name="cfBase.11" value="1"/>
<param name="cfBase.12" value="1"/>
<param name="cfBase.13" value="1"/>
<param name="cfBase.14" value="1"/>
<param name="cfBase.15" value="1"/>
<param name="cfBase.16" value="0"/>
<param name="mnVias" value="20"/>
<param name="mnSegments" value="9999"/>
<param name="mnExtdSteps" value="9999"/>
<param name="mnRipupLevel" value="10"/>
<param name="mnRipupSteps" value="100"/>
<param name="mnRipupTotal" value="100"/>
</pass>
<pass name="Follow-me" refer="Default" active="yes">
</pass>
<pass name="Busses" refer="Default" active="yes">
<param name="cfNonPref" value="4"/>
<param name="cfBusImpact" value="4"/>
<param name="cfHugging" value="0"/>
<param name="mnVias" value="0"/>
</pass>
<pass name="Route" refer="Default" active="yes">
</pass>
<pass name="Optimize1" refer="Default" active="yes">
<param name="cfVia" value="99"/>
<param name="cfExtdStep" value="10"/>
<param name="cfHugging" value="1"/>
<param name="mnExtdSteps" value="1"/>
<param name="mnRipupLevel" value="0"/>
</pass>
<pass name="Optimize2" refer="Optimize1" active="yes">
<param name="cfNonPref" value="0"/>
<param name="cfChangeDir" value="6"/>
<param name="cfExtdStep" value="0"/>
<param name="cfBonusStep" value="2"/>
<param name="cfMalusStep" value="2"/>
<param name="cfPadImpact" value="2"/>
<param name="cfSmdImpact" value="2"/>
<param name="cfHugging" value="0"/>
</pass>
<pass name="Optimize3" refer="Optimize2" active="yes">
<param name="cfChangeDir" value="8"/>
<param name="cfPadImpact" value="0"/>
<param name="cfSmdImpact" value="0"/>
</pass>
<pass name="Optimize4" refer="Optimize3" active="yes">
<param name="cfChangeDir" value="25"/>
</pass>
</autorouter>
<elements>
<element name="U$1" library="UNLibrary" package="ESP32_AZ" value="ESP32_AZ" x="20" y="1"/>
<element name="X1" library="UNLibrary" package="RJ45-SHIELD1" value="RJ45-6L1-S" x="6" y="11" smashed="yes" rot="R270">
<attribute name="MF" value="" x="6" y="11" size="1.778" layer="27" rot="R270" display="off"/>
<attribute name="MPN" value="" x="6" y="11" size="1.778" layer="27" rot="R270" display="off"/>
<attribute name="OC_NEWARK" value="unknown" x="6" y="11" size="1.778" layer="27" rot="R270" display="off"/>
<attribute name="OC_FARNELL" value="unknown" x="6" y="11" size="1.778" layer="27" rot="R270" display="off"/>
<attribute name="VALUE" x="9.04" y="17.215" size="1.778" layer="27" rot="R270"/>
</element>
<element name="BUTTON1" library="con-wago-500" package="W237-102" value="" x="7" y="48" smashed="yes" rot="MR90">
<attribute name="MF" value="" x="7" y="48" size="1.778" layer="28" rot="MR90" display="off"/>
<attribute name="MPN" value="237-102" x="7" y="48" size="1.778" layer="28" rot="MR90" display="off"/>
<attribute name="OC_NEWARK" value="70K9898" x="7" y="48" size="1.778" layer="28" rot="MR90" display="off"/>
<attribute name="OC_FARNELL" value="unknown" x="7" y="48" size="1.778" layer="28" rot="MR90" display="off"/>
<attribute name="VALUE" x="-0.62" y="42.96" size="1.27" layer="28" ratio="10" rot="MR90"/>
<attribute name="NAME" x="2.9962" y="44.1538" size="1.27" layer="25" ratio="10" rot="R90"/>
</element>
<element name="BUTTON2" library="con-wago-500" package="W237-102" value="" x="7" y="38" smashed="yes" rot="MR90">
<attribute name="MF" value="" x="20" y="27" size="1.778" layer="28" rot="MR90" display="off"/>
<attribute name="MPN" value="237-102" x="20" y="27" size="1.778" layer="28" rot="MR90" display="off"/>
<attribute name="OC_NEWARK" value="70K9898" x="20" y="27" size="1.778" layer="28" rot="MR90" display="off"/>
<attribute name="OC_FARNELL" value="unknown" x="20" y="27" size="1.778" layer="28" rot="MR90" display="off"/>
<attribute name="VALUE" x="-0.62" y="32.96" size="1.27" layer="28" ratio="10" rot="MR90"/>
<attribute name="NAME" x="2.9962" y="34.1538" size="1.27" layer="25" ratio="10" rot="R90"/>
</element>
<element name="BUTTON3" library="con-wago-500" package="W237-102" value="" x="7" y="28" smashed="yes" rot="MR90">
<attribute name="MF" value="" x="20" y="17" size="1.778" layer="28" rot="MR90" display="off"/>
<attribute name="MPN" value="237-102" x="20" y="17" size="1.778" layer="28" rot="MR90" display="off"/>
<attribute name="OC_NEWARK" value="70K9898" x="20" y="17" size="1.778" layer="28" rot="MR90" display="off"/>
<attribute name="OC_FARNELL" value="unknown" x="20" y="17" size="1.778" layer="28" rot="MR90" display="off"/>
<attribute name="VALUE" x="-0.62" y="22.96" size="1.27" layer="28" ratio="10" rot="MR90"/>
<attribute name="NAME" x="2.9962" y="24.1538" size="1.27" layer="25" ratio="10" rot="R90"/>
</element>
<element name="R2" library="resistor" package="M1206" value="10k" x="14.5" y="45.5" smashed="yes" rot="R180">
<attribute name="VALUE" x="13.23" y="46.96" size="1.27" layer="27"/>
</element>
<element name="R3" library="resistor" package="M1206" value="10k" x="14.5" y="35.5" smashed="yes" rot="R180">
<attribute name="VALUE" x="13.23" y="36.96" size="1.27" layer="27"/>
</element>
<element name="R4" library="resistor" package="M1206" value="10k" x="14.5" y="25.5" smashed="yes" rot="R180">
<attribute name="VALUE" x="13.23" y="26.96" size="1.27" layer="27"/>
</element>
<element name="SPEED-POT" library="con-wago-500" package="W237-103" value="" x="37" y="33" smashed="yes" rot="MR90">
<attribute name="MF" value="" x="37" y="33" size="1.778" layer="28" rot="MR90" display="off"/>
<attribute name="MPN" value="237-103" x="37" y="33" size="1.778" layer="28" rot="MR90" display="off"/>
<attribute name="OC_NEWARK" value="18M7116" x="37" y="33" size="1.778" layer="28" rot="MR90" display="off"/>
<attribute name="OC_FARNELL" value="unknown" x="37" y="33" size="1.778" layer="28" rot="MR90" display="off"/>
<attribute name="VALUE" x="32.0524" y="27.6952" size="1.27" layer="28" ratio="10" rot="MR90"/>
<attribute name="NAME" x="33.5378" y="28.3142" size="1.27" layer="25" ratio="10" rot="R90"/>
</element>
<element name="LED1" library="UNLibrary" package="LED5MMRGB" value="RGBLED_CA-5MM" x="10" y="61" rot="R90"/>
<element name="R1" library="resistor" package="R1206W" value="300" x="22" y="56" smashed="yes" rot="R180">
<attribute name="VALUE" x="23.905" y="58.54" size="1.27" layer="27" rot="R180"/>
</element>
<element name="R5" library="resistor" package="R1206W" value="300" x="22" y="60" smashed="yes" rot="R180">
<attribute name="VALUE" x="23.905" y="62.54" size="1.27" layer="27" rot="R180"/>
</element>
<element name="R6" library="resistor" package="R1206W" value="300" x="22" y="64" smashed="yes" rot="R180">
<attribute name="VALUE" x="23.905" y="66.54" size="1.27" layer="27" rot="R180"/>
</element>
<element name="IC1" library="uln-udn" package="SO16" value="ULN2003AD" x="33" y="61" smashed="yes" rot="R90">
<attribute name="VALUE" x="33.635" y="56.936" size="1.27" layer="27" ratio="10" rot="R90"/>
</element>
</elements>
<signals>
<signal name="+3V3">
<contactref element="U$1" pad="3.3V"/>
<contactref element="X1" pad="1"/>
<contactref element="BUTTON1" pad="2"/>
<contactref element="BUTTON2" pad="2"/>
<contactref element="BUTTON3" pad="2"/>
<contactref element="SPEED-POT" pad="3"/>
<wire x1="5.73" y1="50.5" x2="3.5" y2="50.5" width="0.4064" layer="16"/>
<wire x1="3.5" y1="50.5" x2="2" y2="49" width="0.4064" layer="16"/>
<wire x1="2" y1="49" x2="2" y2="42" width="0.4064" layer="16"/>
<wire x1="2" y1="42" x2="3.5" y2="40.5" width="0.4064" layer="16"/>
<wire x1="5.73" y1="40.5" x2="3.5" y2="40.5" width="0.4064" layer="16"/>
<wire x1="3.5" y1="40.5" x2="2" y2="39" width="0.4064" layer="16"/>
<wire x1="2" y1="39" x2="2" y2="32" width="0.4064" layer="16"/>
<wire x1="2" y1="32" x2="3.5" y2="30.5" width="0.4064" layer="16"/>
<wire x1="5.73" y1="30.5" x2="3.5" y2="30.5" width="0.4064" layer="16"/>
<wire x1="3.5" y1="30.5" x2="2" y2="29" width="0.4064" layer="16"/>
<wire x1="2" y1="29" x2="2" y2="24" width="0.4064" layer="16"/>
<wire x1="2" y1="24" x2="6" y2="20" width="0.4064" layer="16"/>
<wire x1="6" y1="20" x2="10" y2="20" width="0.4064" layer="16"/>
<wire x1="10" y1="20" x2="12.35" y2="17.65" width="0.4064" layer="16"/>
<wire x1="12.35" y1="17.65" x2="12.35" y2="15.445" width="0.4064" layer="16"/>
<wire x1="21.5" y1="51.36" x2="14.36" y2="51.36" width="0.4064" layer="16"/>
<wire x1="14.36" y1="51.36" x2="13.5" y2="50.5" width="0.4064" layer="16"/>
<wire x1="13.5" y1="50.5" x2="5.73" y2="50.5" width="0.4064" layer="16"/>
<wire x1="21.5" y1="51.36" x2="32.64" y2="51.36" width="0.4064" layer="16"/>
<wire x1="32.64" y1="51.36" x2="35.71" y2="48.29" width="0.4064" layer="16"/>
<wire x1="35.71" y1="48.29" x2="35.71" y2="38" width="0.4064" layer="16"/>
</signal>
<signal name="GND">
<contactref element="X1" pad="2"/>
<contactref element="U$1" pad="GND2"/>
<contactref element="U$1" pad="GND3"/>
<contactref element="R4" pad="1"/>
<contactref element="R3" pad="1"/>
<contactref element="R2" pad="1"/>
<polygon width="0.4064" layer="1">
<vertex x="-1" y="71"/>
<vertex x="-1" y="-5"/>
<vertex x="50" y="-5"/>
<vertex x="50" y="71"/>
</polygon>
<polygon width="0.4064" layer="16">
<vertex x="-2" y="72"/>
<vertex x="-2" y="-6"/>
<vertex x="51" y="-6"/>
<vertex x="51" y="72"/>
</polygon>
<contactref element="SPEED-POT" pad="1"/>
<contactref element="IC1" pad="8"/>
<contactref element="IC1" pad="4"/>
<contactref element="IC1" pad="5"/>
<contactref element="IC1" pad="6"/>
<contactref element="IC1" pad="7"/>
</signal>
<signal name="+5V">
<contactref element="U$1" pad="5V"/>
<contactref element="X1" pad="7"/>
<contactref element="IC1" pad="9"/>
<contactref element="LED1" pad="2"/>
<wire x1="13" y1="3" x2="18.86" y2="3" width="0.4064" layer="16"/>
<wire x1="18.86" y1="3" x2="21.5" y2="5.64" width="0.4064" layer="16"/>
<wire x1="10.9684" y1="60.365" x2="18.6034" y2="68" width="0.4064" layer="1"/>
<wire x1="18.6034" y1="68" x2="24" y2="68" width="0.4064" layer="1"/>
<wire x1="24" y1="68" x2="26.555" y2="65.445" width="0.4064" layer="1"/>
<wire x1="26.555" y1="65.445" x2="29.9266" y2="65.445" width="0.4064" layer="1"/>
<wire x1="12.35" y1="7.825" x2="12.35" y2="3.65" width="0.4064" layer="16"/>
<wire x1="12.35" y1="3.65" x2="13" y2="3" width="0.4064" layer="16"/>
<wire x1="18.86" y1="3" x2="19" y2="3" width="0.4064" layer="16"/>
<wire x1="19" y1="3" x2="21.5" y2="5.5" width="0.4064" layer="16"/>
<wire x1="21.5" y1="5.5" x2="25.5" y2="5.5" width="0.4064" layer="16"/>
<wire x1="25.5" y1="5.5" x2="26" y2="6" width="0.4064" layer="16"/>
<wire x1="26" y1="6" x2="26" y2="29" width="0.4064" layer="16"/>
<wire x1="26" y1="29" x2="28" y2="31" width="0.4064" layer="16"/>
<via x="28" y="31" extent="1-16" drill="0.6"/>
<wire x1="28" y1="31" x2="28" y2="52" width="0.4064" layer="1"/>
<wire x1="28" y1="52" x2="30" y2="54" width="0.4064" layer="1"/>
<wire x1="30" y1="54" x2="32" y2="54" width="0.4064" layer="1"/>
<wire x1="32" y1="54" x2="33" y2="55" width="0.4064" layer="1"/>
<wire x1="33" y1="55" x2="33" y2="67" width="0.4064" layer="1"/>
<wire x1="33" y1="67" x2="32" y2="68" width="0.4064" layer="1"/>
<wire x1="32" y1="68" x2="31" y2="68" width="0.4064" layer="1"/>
<wire x1="31" y1="68" x2="30" y2="67" width="0.4064" layer="1"/>
<wire x1="30" y1="67" x2="30" y2="65.5184" width="0.4064" layer="1"/>
<wire x1="30" y1="65.5184" x2="29.9266" y2="65.445" width="0.4064" layer="1"/>
</signal>
<signal name="N$1">
<contactref element="X1" pad="3"/>
<contactref element="U$1" pad="G12"/>
<wire x1="12.35" y1="12.905" x2="10.5" y2="14.755" width="0.4064" layer="1"/>
<wire x1="10.5" y1="14.755" x2="10.5" y2="18.5" width="0.4064" layer="1"/>
<wire x1="10.5" y1="18.5" x2="12.88" y2="20.88" width="0.4064" layer="1"/>
<wire x1="12.88" y1="20.88" x2="21.5" y2="20.88" width="0.4064" layer="1"/>
</signal>
<signal name="N$2">
<contactref element="X1" pad="4"/>
<contactref element="U$1" pad="G13"/>
<wire x1="14.89" y1="11.635" x2="15.635" y2="11.635" width="0.4064" layer="1"/>
<wire x1="15.635" y1="11.635" x2="18" y2="14" width="0.4064" layer="1"/>
<wire x1="18" y1="14" x2="18" y2="15" width="0.4064" layer="1"/>
<wire x1="18" y1="15" x2="18.8" y2="15.8" width="0.4064" layer="1"/>
<wire x1="18.8" y1="15.8" x2="21.5" y2="15.8" width="0.4064" layer="1"/>
</signal>
<signal name="N$3">
<contactref element="X1" pad="5"/>
<contactref element="U$1" pad="G14"/>
<wire x1="12.35" y1="10.365" x2="9.5" y2="13.215" width="0.4064" layer="1"/>
<wire x1="9.5" y1="13.215" x2="9.5" y2="19" width="0.4064" layer="1"/>
<wire x1="9.5" y1="19" x2="12.5" y2="22" width="0.4064" layer="1"/>
<wire x1="12.5" y1="22" x2="19" y2="22" width="0.4064" layer="1"/>
<wire x1="19" y1="22" x2="20.42" y2="23.42" width="0.4064" layer="1"/>
<wire x1="20.42" y1="23.42" x2="21.5" y2="23.42" width="0.4064" layer="1"/>
</signal>
<signal name="N$4">
<contactref element="X1" pad="6"/>
<contactref element="U$1" pad="G5"/>
<wire x1="14.89" y1="9.095" x2="16.905" y2="9.095" width="0.4064" layer="1"/>
<wire x1="16.905" y1="9.095" x2="19" y2="7" width="0.4064" layer="1"/>
<wire x1="19" y1="7" x2="19" y2="4" width="0.4064" layer="1"/>
<wire x1="19" y1="4" x2="20" y2="3" width="0.4064" layer="1"/>
<wire x1="20" y1="3" x2="27" y2="3" width="0.4064" layer="1"/>
<wire x1="27" y1="3" x2="31" y2="7" width="0.4064" layer="1"/>
<wire x1="31" y1="7" x2="31" y2="22" width="0.4064" layer="1"/>
<wire x1="31" y1="22" x2="33" y2="24" width="0.4064" layer="1"/>
<wire x1="33" y1="24" x2="38" y2="24" width="0.4064" layer="1"/>
<wire x1="38" y1="24" x2="42.5" y2="28.5" width="0.4064" layer="1"/>
<wire x1="42.5" y1="28.5" x2="46.5" y2="28.5" width="0.4064" layer="1"/>
</signal>
<signal name="N$5">
<contactref element="BUTTON1" pad="1"/>
<contactref element="R2" pad="2"/>
<contactref element="U$1" pad="G34"/>
<wire x1="13.1" y1="45.5" x2="5.73" y2="45.5" width="0.4064" layer="1"/>
<wire x1="13.1" y1="45.5" x2="13" y2="45.4" width="0.4064" layer="1"/>
<wire x1="13" y1="45.4" x2="13" y2="43" width="0.4064" layer="1"/>
<wire x1="13" y1="43" x2="14.8" y2="41.2" width="0.4064" layer="1"/>
<wire x1="14.8" y1="41.2" x2="21.5" y2="41.2" width="0.4064" layer="1"/>
</signal>
<signal name="N$6">
<contactref element="BUTTON2" pad="1"/>
<contactref element="R3" pad="2"/>
<contactref element="U$1" pad="G35"/>
<wire x1="13.1" y1="35.5" x2="5.73" y2="35.5" width="0.4064" layer="1"/>
<wire x1="13.1" y1="35.5" x2="13.1" y2="37.1" width="0.4064" layer="1"/>
<wire x1="13.1" y1="37.1" x2="14.66" y2="38.66" width="0.4064" layer="1"/>
<wire x1="14.66" y1="38.66" x2="21.5" y2="38.66" width="0.4064" layer="1"/>
</signal>
<signal name="N$7">
<contactref element="BUTTON3" pad="1"/>
<contactref element="R4" pad="2"/>
<contactref element="U$1" pad="G32"/>
<wire x1="13.1" y1="25.5" x2="5.73" y2="25.5" width="0.4064" layer="1"/>
<wire x1="13.1" y1="25.5" x2="13.1" y2="29.1" width="0.4064" layer="1"/>
<wire x1="13.1" y1="29.1" x2="15" y2="31" width="0.4064" layer="1"/>
<wire x1="15" y1="31" x2="18" y2="31" width="0.4064" layer="1"/>
<wire x1="18" y1="31" x2="19" y2="32" width="0.4064" layer="1"/>
<wire x1="19" y1="32" x2="19" y2="35" width="0.4064" layer="1"/>
<wire x1="19" y1="35" x2="20.12" y2="36.12" width="0.4064" layer="1"/>
<wire x1="20.12" y1="36.12" x2="21.5" y2="36.12" width="0.4064" layer="1"/>
</signal>
<signal name="N$10">
<contactref element="U$1" pad="G33"/>
<contactref element="SPEED-POT" pad="2"/>
<wire x1="21.5" y1="33.58" x2="22.08" y2="33" width="0.4064" layer="16"/>
<wire x1="22.08" y1="33" x2="35.71" y2="33" width="0.4064" layer="16"/>
</signal>
<signal name="-5V">
<contactref element="X1" pad="8"/>
<contactref element="U$1" pad="GND1"/>
<wire x1="14.89" y1="6.555" x2="18.555" y2="6.555" width="0.4064" layer="16"/>
<wire x1="18.555" y1="6.555" x2="19" y2="7" width="0.4064" layer="16"/>
<wire x1="19" y1="7" x2="19" y2="17" width="0.4064" layer="16"/>
<wire x1="19" y1="17" x2="20.34" y2="18.34" width="0.4064" layer="16"/>
<wire x1="20.34" y1="18.34" x2="21.5" y2="18.34" width="0.4064" layer="16"/>
</signal>
<signal name="N$8">
<contactref element="LED1" pad="4"/>
<contactref element="R6" pad="2"/>
<wire x1="20.501" y1="64" x2="18" y2="64" width="0.4064" layer="1"/>
<via x="18" y="64" extent="1-16" drill="0.6"/>
<wire x1="18" y1="64" x2="11.8094" y2="64" width="0.4064" layer="16"/>
<wire x1="11.8094" y1="64" x2="10.9684" y2="63.159" width="0.4064" layer="16"/>
</signal>
<signal name="N$9">
<contactref element="LED1" pad="3"/>
<contactref element="R5" pad="2"/>
<wire x1="20.501" y1="60" x2="16" y2="60" width="0.4064" layer="1"/>
<wire x1="16" y1="60" x2="12" y2="56" width="0.4064" layer="1"/>
<wire x1="12" y1="56" x2="6" y2="56" width="0.4064" layer="1"/>
<wire x1="6" y1="56" x2="5" y2="57" width="0.4064" layer="1"/>
<wire x1="5" y1="57" x2="5" y2="60" width="0.4064" layer="1"/>
<wire x1="5" y1="60" x2="6.889" y2="61.889" width="0.4064" layer="1"/>
<wire x1="6.889" y1="61.889" x2="9.0316" y2="61.889" width="0.4064" layer="1"/>
</signal>
<signal name="N$11">
<contactref element="LED1" pad="1"/>
<contactref element="R1" pad="2"/>
<wire x1="9.0316" y1="58.841" x2="11.8726" y2="56" width="0.4064" layer="16"/>
<wire x1="11.8726" y1="56" x2="16" y2="56" width="0.4064" layer="16"/>
<via x="16" y="56" extent="1-16" drill="0.6"/>
<wire x1="16" y1="56" x2="20.501" y2="56" width="0.4064" layer="1"/>
</signal>
<signal name="N$13">
<contactref element="R1" pad="1"/>
<contactref element="IC1" pad="16"/>
<wire x1="29.9266" y1="56.555" x2="29.3716" y2="56" width="0.4064" layer="1"/>
<wire x1="29.3716" y1="56" x2="23.499" y2="56" width="0.4064" layer="1"/>
</signal>
<signal name="N$14">
<contactref element="R5" pad="1"/>
<contactref element="IC1" pad="15"/>
<wire x1="29.9266" y1="57.825" x2="25.674" y2="57.825" width="0.4064" layer="1"/>
<wire x1="25.674" y1="57.825" x2="23.499" y2="60" width="0.4064" layer="1"/>
</signal>
<signal name="N$15">
<contactref element="R6" pad="1"/>
<contactref element="IC1" pad="14"/>
<wire x1="29.9266" y1="59.095" x2="27.905" y2="59.095" width="0.4064" layer="1"/>
<wire x1="27.905" y1="59.095" x2="27" y2="60" width="0.4064" layer="1"/>
<wire x1="27" y1="60" x2="27" y2="63" width="0.4064" layer="1"/>
<wire x1="27" y1="63" x2="26" y2="64" width="0.4064" layer="1"/>
<wire x1="26" y1="64" x2="23.499" y2="64" width="0.4064" layer="1"/>
</signal>
<signal name="N$17">
<contactref element="U$1" pad="G16"/>
<contactref element="IC1" pad="2"/>
<wire x1="46.5" y1="23.42" x2="42.58" y2="23.42" width="0.4064" layer="16"/>
<wire x1="42.58" y1="23.42" x2="42" y2="24" width="0.4064" layer="16"/>
<wire x1="42" y1="24" x2="42" y2="50" width="0.4064" layer="16"/>
<wire x1="42" y1="50" x2="39" y2="53" width="0.4064" layer="16"/>
<via x="39" y="53" extent="1-16" drill="0.6"/>
<wire x1="39" y1="53" x2="39" y2="57" width="0.4064" layer="1"/>
<wire x1="39" y1="57" x2="38.175" y2="57.825" width="0.4064" layer="1"/>
<wire x1="38.175" y1="57.825" x2="36.0734" y2="57.825" width="0.4064" layer="1"/>
</signal>
<signal name="N$12">
<contactref element="IC1" pad="1"/>
<contactref element="U$1" pad="G4"/>
<wire x1="46.5" y1="20.88" x2="41.12" y2="20.88" width="0.4064" layer="16"/>
<wire x1="41.12" y1="20.88" x2="40" y2="22" width="0.4064" layer="16"/>
<wire x1="40" y1="22" x2="40" y2="48" width="0.4064" layer="16"/>
<wire x1="40" y1="48" x2="37" y2="51" width="0.4064" layer="16"/>
<via x="37" y="51" extent="1-16" drill="0.6"/>
<wire x1="37" y1="51" x2="36.0734" y2="51.9266" width="0.4064" layer="1"/>
<wire x1="36.0734" y1="51.9266" x2="36.0734" y2="56.555" width="0.4064" layer="1"/>
</signal>
<signal name="N$16">
<contactref element="IC1" pad="3"/>
<contactref element="U$1" pad="G17"/>
<wire x1="46.5" y1="25.96" x2="45.04" y2="25.96" width="0.4064" layer="16"/>
<wire x1="45.04" y1="25.96" x2="44" y2="27" width="0.4064" layer="16"/>
<wire x1="44" y1="27" x2="44" y2="52" width="0.4064" layer="16"/>
<wire x1="44" y1="52" x2="41" y2="55" width="0.4064" layer="16"/>
<via x="41" y="55" extent="1-16" drill="0.6"/>
<wire x1="41" y1="55" x2="41" y2="57" width="0.4064" layer="1"/>
<wire x1="41" y1="57" x2="38.905" y2="59.095" width="0.4064" layer="1"/>
<wire x1="38.905" y1="59.095" x2="36.0734" y2="59.095" width="0.4064" layer="1"/>
</signal>
</signals>
<errors>
<approved hash="4,1,a428db4597e08cc1"/>
<approved hash="4,1,f7ca9661e20f50f9"/>
<approved hash="4,16,a428db4597e08cc1"/>
<approved hash="4,16,f7ca9661e20f50f9"/>
</errors>
</board>
</drawing>
</eagle>
